<?xml version="1.0" encoding="utf-8" standalone="no"?>
<!DOCTYPE svg PUBLIC "-//W3C//DTD SVG 1.1//EN"
  "http://www.w3.org/Graphics/SVG/1.1/DTD/svg11.dtd">
<svg xmlns:xlink="http://www.w3.org/1999/xlink" width="200.6pt" height="200.6pt" viewBox="0 0 200.6 200.6" xmlns="http://www.w3.org/2000/svg" version="1.1">
 <metadata>
  <rdf:RDF xmlns:dc="http://purl.org/dc/elements/1.1/" xmlns:cc="http://creativecommons.org/ns#" xmlns:rdf="http://www.w3.org/1999/02/22-rdf-syntax-ns#">
   <cc:Work>
    <dc:type rdf:resource="http://purl.org/dc/dcmitype/StillImage"/>
    <dc:date>2022-01-07T17:36:29.244776</dc:date>
    <dc:format>image/svg+xml</dc:format>
    <dc:creator>
     <cc:Agent>
      <dc:title>Matplotlib v3.5.1, https://matplotlib.org/</dc:title>
     </cc:Agent>
    </dc:creator>
   </cc:Work>
  </rdf:RDF>
 </metadata>
 <defs>
  <style type="text/css">*{stroke-linejoin: round; stroke-linecap: butt}</style>
 </defs>
 <g id="figure_1">
  <g id="patch_1">
   <path d="M 0 200.6 
L 200.6 200.6 
L 200.6 0 
L 0 0 
z
" style="fill: #ffffff"/>
  </g>
  <g id="axes_1">
   <g id="patch_2">
    <path d="M 42.2 162.4 
L 193.4 162.4 
L 193.4 11.2 
L 42.2 11.2 
z
" style="fill: #eaeaf2"/>
   </g>
   <g id="line2d_1">
    <path d="M 42.2 29.445361 
L 45 15.779642 
L 47.8 15.7824 
L 50.6 15.74243 
L 53.4 15.568918 
L 56.2 15.357032 
L 59 15.193856 
L 61.8 15.073003 
L 64.6 14.957421 
L 67.4 14.867605 
L 70.2 14.815073 
L 73 14.74594 
L 75.8 14.71729 
L 78.6 14.641623 
L 81.4 14.622355 
L 84.2 14.592876 
L 87 14.553015 
L 89.8 14.514804 
L 92.6 14.48318 
L 95.4 14.474726 
L 98.2 14.456251 
L 101 14.451366 
L 103.8 14.386659 
L 106.6 14.368697 
L 109.4 14.360154 
L 112.2 14.33993 
L 115 14.329161 
L 117.8 14.311677 
L 120.6 14.300673 
L 123.4 14.282504 
L 126.2 14.239507 
L 129 14.257297 
L 131.8 14.237696 
L 134.6 14.214597 
L 137.4 14.198628 
L 140.2 14.210407 
L 143 14.204558 
L 145.8 14.188273 
L 148.6 14.174277 
L 151.4 14.147123 
L 154.2 14.138778 
L 157 14.152458 
L 159.8 14.11558 
L 162.6 14.12735 
L 165.4 14.121014 
L 168.2 14.10034 
L 171 14.058208 
L 173.8 14.067085 
L 176.6 14.046898 
L 179.4 14.061038 
L 182.2 14.038949 
L 185 14.035768 
L 187.8 14.022132 
L 190.6 13.988931 
L 193.4 13.99478 
" clip-path="url(#p46d1661672)" style="fill: none; stroke: #30a2da; stroke-width: 2; stroke-linecap: round"/>
   </g>
   <g id="matplotlib.axis_1">
    <g id="xtick_1">
     <g id="line2d_2"/>
     <g id="text_1">
      <!-- 0 -->
      <g style="fill: #262626" transform="translate(39.419531 176.646875)scale(0.1 -0.1)">
       <defs>
        <path id="LiberationSans-30" d="M 3309 2203 
Q 3309 1100 2920 518 
Q 2531 -63 1772 -63 
Q 1013 -63 631 515 
Q 250 1094 250 2203 
Q 250 3338 620 3903 
Q 991 4469 1791 4469 
Q 2569 4469 2939 3897 
Q 3309 3325 3309 2203 
z
M 2738 2203 
Q 2738 3156 2517 3584 
Q 2297 4013 1791 4013 
Q 1272 4013 1045 3591 
Q 819 3169 819 2203 
Q 819 1266 1048 831 
Q 1278 397 1778 397 
Q 2275 397 2506 840 
Q 2738 1284 2738 2203 
z
" transform="scale(0.015625)"/>
       </defs>
       <use xlink:href="#LiberationSans-30"/>
      </g>
     </g>
    </g>
    <g id="xtick_2">
     <g id="line2d_3"/>
     <g id="text_2">
      <!-- 20 -->
      <g style="fill: #262626" transform="translate(92.639063 176.646875)scale(0.1 -0.1)">
       <defs>
        <path id="LiberationSans-32" d="M 322 0 
L 322 397 
Q 481 763 711 1042 
Q 941 1322 1194 1548 
Q 1447 1775 1695 1969 
Q 1944 2163 2144 2356 
Q 2344 2550 2467 2762 
Q 2591 2975 2591 3244 
Q 2591 3606 2378 3806 
Q 2166 4006 1788 4006 
Q 1428 4006 1195 3811 
Q 963 3616 922 3263 
L 347 3316 
Q 409 3844 795 4156 
Q 1181 4469 1788 4469 
Q 2453 4469 2811 4155 
Q 3169 3841 3169 3263 
Q 3169 3006 3051 2753 
Q 2934 2500 2703 2247 
Q 2472 1994 1819 1463 
Q 1459 1169 1246 933 
Q 1034 697 941 478 
L 3238 478 
L 3238 0 
L 322 0 
z
" transform="scale(0.015625)"/>
       </defs>
       <use xlink:href="#LiberationSans-32"/>
       <use xlink:href="#LiberationSans-30" x="55.615234"/>
      </g>
     </g>
    </g>
    <g id="xtick_3">
     <g id="line2d_4"/>
     <g id="text_3">
      <!-- 40 -->
      <g style="fill: #262626" transform="translate(148.639062 176.646875)scale(0.1 -0.1)">
       <defs>
        <path id="LiberationSans-34" d="M 2753 997 
L 2753 0 
L 2222 0 
L 2222 997 
L 147 997 
L 147 1434 
L 2163 4403 
L 2753 4403 
L 2753 1441 
L 3372 1441 
L 3372 997 
L 2753 997 
z
M 2222 3769 
Q 2216 3750 2134 3603 
Q 2053 3456 2013 3397 
L 884 1734 
L 716 1503 
L 666 1441 
L 2222 1441 
L 2222 3769 
z
" transform="scale(0.015625)"/>
       </defs>
       <use xlink:href="#LiberationSans-34"/>
       <use xlink:href="#LiberationSans-30" x="55.615234"/>
      </g>
     </g>
    </g>
    <g id="text_4">
     <!-- Epoche -->
     <g style="fill: #262626" transform="translate(99.147266 190.693437)scale(0.11 -0.11)">
      <defs>
       <path id="LiberationSans-45" d="M 525 0 
L 525 4403 
L 3866 4403 
L 3866 3916 
L 1122 3916 
L 1122 2503 
L 3678 2503 
L 3678 2022 
L 1122 2022 
L 1122 488 
L 3994 488 
L 3994 0 
L 525 0 
z
" transform="scale(0.015625)"/>
       <path id="LiberationSans-70" d="M 3291 1706 
Q 3291 -63 2047 -63 
Q 1266 -63 997 525 
L 981 525 
Q 994 500 994 -6 
L 994 -1328 
L 431 -1328 
L 431 2691 
Q 431 3213 413 3381 
L 956 3381 
Q 959 3369 965 3292 
Q 972 3216 980 3056 
Q 988 2897 988 2838 
L 1000 2838 
Q 1150 3150 1397 3295 
Q 1644 3441 2047 3441 
Q 2672 3441 2981 3022 
Q 3291 2603 3291 1706 
z
M 2700 1694 
Q 2700 2400 2509 2703 
Q 2319 3006 1903 3006 
Q 1569 3006 1380 2865 
Q 1191 2725 1092 2426 
Q 994 2128 994 1650 
Q 994 984 1206 668 
Q 1419 353 1897 353 
Q 2316 353 2508 661 
Q 2700 969 2700 1694 
z
" transform="scale(0.015625)"/>
       <path id="LiberationSans-6f" d="M 3291 1694 
Q 3291 806 2900 371 
Q 2509 -63 1766 -63 
Q 1025 -63 647 389 
Q 269 841 269 1694 
Q 269 3444 1784 3444 
Q 2559 3444 2925 3017 
Q 3291 2591 3291 1694 
z
M 2700 1694 
Q 2700 2394 2492 2711 
Q 2284 3028 1794 3028 
Q 1300 3028 1079 2704 
Q 859 2381 859 1694 
Q 859 1025 1076 689 
Q 1294 353 1759 353 
Q 2266 353 2483 678 
Q 2700 1003 2700 1694 
z
" transform="scale(0.015625)"/>
       <path id="LiberationSans-63" d="M 859 1706 
Q 859 1031 1071 706 
Q 1284 381 1713 381 
Q 2013 381 2214 543 
Q 2416 706 2463 1044 
L 3031 1006 
Q 2966 519 2616 228 
Q 2266 -63 1728 -63 
Q 1019 -63 645 385 
Q 272 834 272 1694 
Q 272 2547 647 2995 
Q 1022 3444 1722 3444 
Q 2241 3444 2583 3175 
Q 2925 2906 3013 2434 
L 2434 2391 
Q 2391 2672 2212 2837 
Q 2034 3003 1706 3003 
Q 1259 3003 1059 2706 
Q 859 2409 859 1706 
z
" transform="scale(0.015625)"/>
       <path id="LiberationSans-68" d="M 991 2803 
Q 1172 3134 1426 3289 
Q 1681 3444 2072 3444 
Q 2622 3444 2883 3170 
Q 3144 2897 3144 2253 
L 3144 0 
L 2578 0 
L 2578 2144 
Q 2578 2500 2512 2673 
Q 2447 2847 2297 2928 
Q 2147 3009 1881 3009 
Q 1484 3009 1245 2734 
Q 1006 2459 1006 1994 
L 1006 0 
L 444 0 
L 444 4638 
L 1006 4638 
L 1006 3431 
Q 1006 3241 995 3037 
Q 984 2834 981 2803 
L 991 2803 
z
" transform="scale(0.015625)"/>
       <path id="LiberationSans-65" d="M 863 1572 
Q 863 991 1103 675 
Q 1344 359 1806 359 
Q 2172 359 2392 506 
Q 2613 653 2691 878 
L 3184 738 
Q 2881 -63 1806 -63 
Q 1056 -63 664 384 
Q 272 831 272 1713 
Q 272 2550 664 2997 
Q 1056 3444 1784 3444 
Q 3275 3444 3275 1647 
L 3275 1572 
L 863 1572 
z
M 2694 2003 
Q 2647 2538 2422 2783 
Q 2197 3028 1775 3028 
Q 1366 3028 1127 2754 
Q 888 2481 869 2003 
L 2694 2003 
z
" transform="scale(0.015625)"/>
      </defs>
      <use xlink:href="#LiberationSans-45"/>
      <use xlink:href="#LiberationSans-70" x="66.699219"/>
      <use xlink:href="#LiberationSans-6f" x="122.314453"/>
      <use xlink:href="#LiberationSans-63" x="177.929688"/>
      <use xlink:href="#LiberationSans-68" x="227.929688"/>
      <use xlink:href="#LiberationSans-65" x="283.544922"/>
     </g>
    </g>
   </g>
   <g id="matplotlib.axis_2">
    <g id="ytick_1">
     <g id="line2d_5"/>
     <g id="text_5">
      <!-- 0.0 -->
      <g style="fill: #262626" transform="translate(21.3 166.023437)scale(0.1 -0.1)">
       <defs>
        <path id="LiberationSans-2e" d="M 584 0 
L 584 684 
L 1194 684 
L 1194 0 
L 584 0 
z
" transform="scale(0.015625)"/>
       </defs>
       <use xlink:href="#LiberationSans-30"/>
       <use xlink:href="#LiberationSans-2e" x="55.615234"/>
       <use xlink:href="#LiberationSans-30" x="83.398438"/>
      </g>
     </g>
    </g>
    <g id="ytick_2">
     <g id="line2d_6"/>
     <g id="text_6">
      <!-- 0.2 -->
      <g style="fill: #262626" transform="translate(21.3 135.783437)scale(0.1 -0.1)">
       <use xlink:href="#LiberationSans-30"/>
       <use xlink:href="#LiberationSans-2e" x="55.615234"/>
       <use xlink:href="#LiberationSans-32" x="83.398438"/>
      </g>
     </g>
    </g>
    <g id="ytick_3">
     <g id="line2d_7"/>
     <g id="text_7">
      <!-- 0.4 -->
      <g style="fill: #262626" transform="translate(21.3 105.543437)scale(0.1 -0.1)">
       <use xlink:href="#LiberationSans-30"/>
       <use xlink:href="#LiberationSans-2e" x="55.615234"/>
       <use xlink:href="#LiberationSans-34" x="83.398438"/>
      </g>
     </g>
    </g>
    <g id="ytick_4">
     <g id="line2d_8"/>
     <g id="text_8">
      <!-- 0.6 -->
      <g style="fill: #262626" transform="translate(21.3 75.303437)scale(0.1 -0.1)">
       <defs>
        <path id="LiberationSans-36" d="M 3278 1441 
Q 3278 744 2900 340 
Q 2522 -63 1856 -63 
Q 1113 -63 719 490 
Q 325 1044 325 2100 
Q 325 3244 734 3856 
Q 1144 4469 1900 4469 
Q 2897 4469 3156 3572 
L 2619 3475 
Q 2453 4013 1894 4013 
Q 1413 4013 1148 3564 
Q 884 3116 884 2266 
Q 1038 2550 1316 2698 
Q 1594 2847 1953 2847 
Q 2563 2847 2920 2465 
Q 3278 2084 3278 1441 
z
M 2706 1416 
Q 2706 1894 2472 2153 
Q 2238 2413 1819 2413 
Q 1425 2413 1183 2183 
Q 941 1953 941 1550 
Q 941 1041 1192 716 
Q 1444 391 1838 391 
Q 2244 391 2475 664 
Q 2706 938 2706 1416 
z
" transform="scale(0.015625)"/>
       </defs>
       <use xlink:href="#LiberationSans-30"/>
       <use xlink:href="#LiberationSans-2e" x="55.615234"/>
       <use xlink:href="#LiberationSans-36" x="83.398438"/>
      </g>
     </g>
    </g>
    <g id="ytick_5">
     <g id="line2d_9"/>
     <g id="text_9">
      <!-- 0.8 -->
      <g style="fill: #262626" transform="translate(21.3 45.063437)scale(0.1 -0.1)">
       <defs>
        <path id="LiberationSans-38" d="M 3281 1228 
Q 3281 619 2893 278 
Q 2506 -63 1781 -63 
Q 1075 -63 676 271 
Q 278 606 278 1222 
Q 278 1653 525 1947 
Q 772 2241 1156 2303 
L 1156 2316 
Q 797 2400 589 2681 
Q 381 2963 381 3341 
Q 381 3844 757 4156 
Q 1134 4469 1769 4469 
Q 2419 4469 2795 4162 
Q 3172 3856 3172 3334 
Q 3172 2956 2962 2675 
Q 2753 2394 2391 2322 
L 2391 2309 
Q 2813 2241 3047 1952 
Q 3281 1663 3281 1228 
z
M 2588 3303 
Q 2588 4050 1769 4050 
Q 1372 4050 1164 3862 
Q 956 3675 956 3303 
Q 956 2925 1170 2726 
Q 1384 2528 1775 2528 
Q 2172 2528 2380 2711 
Q 2588 2894 2588 3303 
z
M 2697 1281 
Q 2697 1691 2453 1898 
Q 2209 2106 1769 2106 
Q 1341 2106 1100 1882 
Q 859 1659 859 1269 
Q 859 359 1788 359 
Q 2247 359 2472 579 
Q 2697 800 2697 1281 
z
" transform="scale(0.015625)"/>
       </defs>
       <use xlink:href="#LiberationSans-30"/>
       <use xlink:href="#LiberationSans-2e" x="55.615234"/>
       <use xlink:href="#LiberationSans-38" x="83.398438"/>
      </g>
     </g>
    </g>
    <g id="ytick_6">
     <g id="line2d_10"/>
     <g id="text_10">
      <!-- 1.0 -->
      <g style="fill: #262626" transform="translate(21.3 14.823437)scale(0.1 -0.1)">
       <defs>
        <path id="LiberationSans-31" d="M 488 0 
L 488 478 
L 1609 478 
L 1609 3866 
L 616 3156 
L 616 3688 
L 1656 4403 
L 2175 4403 
L 2175 478 
L 3247 478 
L 3247 0 
L 488 0 
z
" transform="scale(0.015625)"/>
       </defs>
       <use xlink:href="#LiberationSans-31"/>
       <use xlink:href="#LiberationSans-2e" x="55.615234"/>
       <use xlink:href="#LiberationSans-30" x="83.398438"/>
      </g>
     </g>
    </g>
    <g id="text_11">
     <!-- IoU -->
     <g style="fill: #262626" transform="translate(15.0175 95.358516)rotate(-90)scale(0.11 -0.11)">
      <defs>
       <path id="LiberationSans-49" d="M 591 0 
L 591 4403 
L 1188 4403 
L 1188 0 
L 591 0 
z
" transform="scale(0.015625)"/>
       <path id="LiberationSans-55" d="M 2284 -63 
Q 1744 -63 1341 134 
Q 938 331 716 706 
Q 494 1081 494 1600 
L 494 4403 
L 1091 4403 
L 1091 1650 
Q 1091 1047 1397 734 
Q 1703 422 2281 422 
Q 2875 422 3204 745 
Q 3534 1069 3534 1691 
L 3534 4403 
L 4128 4403 
L 4128 1656 
Q 4128 1122 3901 734 
Q 3675 347 3261 142 
Q 2847 -63 2284 -63 
z
" transform="scale(0.015625)"/>
      </defs>
      <use xlink:href="#LiberationSans-49"/>
      <use xlink:href="#LiberationSans-6f" x="27.783203"/>
      <use xlink:href="#LiberationSans-55" x="83.398438"/>
     </g>
    </g>
   </g>
   <g id="line2d_11">
    <path d="M 42.2 162.247149 
L 45 162.4 
L 47.8 162.4 
L 50.6 162.399097 
L 53.4 144.945042 
L 56.2 135.248752 
L 59 126.888676 
L 61.8 120.377675 
L 64.6 117.244256 
L 67.4 114.817098 
L 70.2 114.096187 
L 73 111.731268 
L 75.8 109.31742 
L 78.6 107.838375 
L 81.4 107.915849 
L 84.2 106.547676 
L 87 105.306256 
L 89.8 104.168621 
L 92.6 103.567645 
L 95.4 103.311315 
L 98.2 103.079971 
L 101 101.833175 
L 103.8 101.242244 
L 106.6 100.484095 
L 109.4 101.577882 
L 112.2 99.260474 
L 115 99.417318 
L 117.8 99.839753 
L 120.6 99.046321 
L 123.4 99.328057 
L 126.2 98.012957 
L 129 98.70771 
L 131.8 98.228169 
L 134.6 97.535512 
L 137.4 97.31707 
L 140.2 97.894496 
L 143 96.946852 
L 145.8 96.936916 
L 148.6 96.205944 
L 151.4 95.486841 
L 154.2 95.374463 
L 157 94.77588 
L 159.8 95.276721 
L 162.6 95.50354 
L 165.4 94.811487 
L 168.2 94.188215 
L 171 93.459505 
L 173.8 94.089554 
L 176.6 94.233358 
L 179.4 93.956525 
L 182.2 93.442932 
L 185 93.350272 
L 187.8 92.695981 
L 190.6 91.520931 
L 193.4 91.673508 
" clip-path="url(#p46d1661672)" style="fill: none; stroke: #fc4f30; stroke-width: 2; stroke-linecap: round"/>
   </g>
   <g id="line2d_12">
    <path d="M 42.2 160.081566 
L 45 161.699065 
L 47.8 161.06069 
L 50.6 152.006732 
L 53.4 140.848232 
L 56.2 132.086052 
L 59 126.252938 
L 61.8 121.686682 
L 64.6 117.018865 
L 67.4 112.666579 
L 70.2 111.011105 
L 73 109.87977 
L 75.8 109.292218 
L 78.6 105.827189 
L 81.4 105.034659 
L 84.2 104.426559 
L 87 104.346653 
L 89.8 102.238982 
L 92.6 102.409065 
L 95.4 101.289017 
L 98.2 101.219637 
L 101 102.273972 
L 103.8 99.105122 
L 106.6 99.423816 
L 109.4 98.006374 
L 112.2 98.064971 
L 115 97.705451 
L 117.8 98.179341 
L 120.6 96.513157 
L 123.4 95.877917 
L 126.2 96.164186 
L 129 94.990537 
L 131.8 95.484988 
L 134.6 95.690963 
L 137.4 94.361223 
L 140.2 95.45966 
L 143 94.189333 
L 145.8 94.113148 
L 148.6 94.403278 
L 151.4 93.601515 
L 154.2 93.268694 
L 157 93.605773 
L 159.8 92.660098 
L 162.6 92.872526 
L 165.4 92.389822 
L 168.2 92.559292 
L 171 91.899138 
L 173.8 91.377668 
L 176.6 90.488905 
L 179.4 91.731574 
L 182.2 91.056946 
L 185 90.514825 
L 187.8 90.690414 
L 190.6 90.077452 
L 193.4 89.640387 
" clip-path="url(#p46d1661672)" style="fill: none; stroke: #e5ae38; stroke-width: 2; stroke-linecap: round"/>
   </g>
   <g id="patch_3">
    <path d="M 42.2 162.4 
L 42.2 11.2 
" style="fill: none"/>
   </g>
   <g id="patch_4">
    <path d="M 193.4 162.4 
L 193.4 11.2 
" style="fill: none"/>
   </g>
   <g id="patch_5">
    <path d="M 42.2 162.4 
L 193.4 162.4 
" style="fill: none"/>
   </g>
   <g id="patch_6">
    <path d="M 42.2 11.2 
L 193.4 11.2 
" style="fill: none"/>
   </g>
   <g id="line2d_13">
    <path d="M 42.2 162.342079 
L 45 162.4 
L 47.8 162.4 
L 50.6 162.4 
L 53.4 156.042028 
L 56.2 133.065539 
L 59 121.888204 
L 61.8 115.331164 
L 64.6 110.184554 
L 67.4 107.050774 
L 70.2 104.601365 
L 73 100.383456 
L 75.8 99.476556 
L 78.6 97.058455 
L 81.4 95.927295 
L 84.2 95.61855 
L 87 93.789361 
L 89.8 92.403011 
L 92.6 91.2027 
L 95.4 91.023772 
L 98.2 91.401789 
L 101 90.077511 
L 103.8 89.941918 
L 106.6 88.070097 
L 109.4 88.214743 
L 112.2 87.341067 
L 115 87.14506 
L 117.8 85.618002 
L 120.6 86.364394 
L 123.4 85.931069 
L 126.2 84.43641 
L 129 84.638869 
L 131.8 83.488216 
L 134.6 82.679441 
L 137.4 83.236504 
L 140.2 83.315641 
L 143 83.064704 
L 145.8 82.186887 
L 148.6 82.07518 
L 151.4 80.491354 
L 154.2 80.721869 
L 157 80.844174 
L 159.8 80.096186 
L 162.6 79.597144 
L 165.4 80.212273 
L 168.2 79.24883 
L 171 77.51925 
L 173.8 78.622526 
L 176.6 78.008712 
L 179.4 77.865274 
L 182.2 78.459513 
L 185 77.930766 
L 187.8 77.338401 
L 190.6 76.18344 
L 193.4 76.443415 
" clip-path="url(#p46d1661672)" style="fill: none; stroke: #6d904f; stroke-width: 2; stroke-linecap: round"/>
   </g>
   <g id="line2d_14">
    <path d="M 42.2 162.271747 
L 45 162.4 
L 47.8 162.4 
L 50.6 162.391994 
L 53.4 149.387291 
L 56.2 125.395833 
L 59 119.422406 
L 61.8 114.285399 
L 64.6 109.862885 
L 67.4 107.229973 
L 70.2 103.726265 
L 73 102.069408 
L 75.8 102.143516 
L 78.6 98.686711 
L 81.4 98.21603 
L 84.2 96.68132 
L 87 95.195444 
L 89.8 94.538908 
L 92.6 93.719787 
L 95.4 93.283294 
L 98.2 91.570863 
L 101 92.126534 
L 103.8 89.512553 
L 106.6 89.848312 
L 109.4 89.118561 
L 112.2 89.510462 
L 115 87.65083 
L 117.8 87.794427 
L 120.6 87.422181 
L 123.4 85.579204 
L 126.2 84.985002 
L 129 86.339169 
L 131.8 85.269689 
L 134.6 85.102836 
L 137.4 83.676904 
L 140.2 83.964358 
L 143 84.402226 
L 145.8 84.044711 
L 148.6 83.089461 
L 151.4 83.50095 
L 154.2 81.726362 
L 157 82.779612 
L 159.8 81.829768 
L 162.6 82.476909 
L 165.4 82.248981 
L 168.2 81.836104 
L 171 80.730016 
L 173.8 80.235263 
L 176.6 79.445035 
L 179.4 79.294504 
L 182.2 78.374771 
L 185 79.309879 
L 187.8 79.280193 
L 190.6 78.447842 
L 193.4 79.067459 
" clip-path="url(#p46d1661672)" style="fill: none; stroke: #8b8b8b; stroke-width: 2; stroke-linecap: round"/>
   </g>
   <g id="line2d_15">
    <path d="M 42.2 162.02269 
L 45 162.4 
L 47.8 162.4 
L 50.6 162.4 
L 53.4 162.4 
L 56.2 162.4 
L 59 162.4 
L 61.8 162.4 
L 64.6 162.4 
L 67.4 162.4 
L 70.2 162.4 
L 73 162.4 
L 75.8 162.4 
L 78.6 162.4 
L 81.4 162.4 
L 84.2 162.4 
L 87 162.4 
L 89.8 162.4 
L 92.6 162.4 
L 95.4 162.4 
L 98.2 162.4 
L 101 162.4 
L 103.8 162.4 
L 106.6 162.386533 
L 109.4 161.483574 
L 112.2 161.408259 
L 115 159.140603 
L 117.8 155.329829 
L 120.6 150.222524 
L 123.4 153.872444 
L 126.2 154.792089 
L 129 144.298742 
L 131.8 148.112843 
L 134.6 142.528102 
L 137.4 145.114463 
L 140.2 148.66228 
L 143 142.940386 
L 145.8 138.841501 
L 148.6 142.028205 
L 151.4 147.263662 
L 154.2 143.450203 
L 157 137.714 
L 159.8 144.097052 
L 162.6 137.853142 
L 165.4 146.009002 
L 168.2 133.761161 
L 171 143.835287 
L 173.8 141.273328 
L 176.6 133.764351 
L 179.4 134.478538 
L 182.2 136.963706 
L 185 131.744272 
L 187.8 133.470888 
L 190.6 130.256859 
L 193.4 130.10298 
" clip-path="url(#p46d1661672)" style="fill: none; stroke: #17becf; stroke-width: 2; stroke-linecap: round"/>
   </g>
   <g id="line2d_16">
    <path d="M 42.2 162.167587 
L 45 162.4 
L 47.8 162.4 
L 50.6 162.4 
L 53.4 162.4 
L 56.2 162.4 
L 59 162.4 
L 61.8 162.4 
L 64.6 162.4 
L 67.4 162.4 
L 70.2 162.4 
L 73 162.4 
L 75.8 162.4 
L 78.6 162.4 
L 81.4 162.4 
L 84.2 162.4 
L 87 162.4 
L 89.8 162.4 
L 92.6 162.4 
L 95.4 162.4 
L 98.2 162.4 
L 101 162.4 
L 103.8 162.4 
L 106.6 162.4 
L 109.4 162.4 
L 112.2 162.4 
L 115 162.4 
L 117.8 162.327499 
L 120.6 161.095414 
L 123.4 161.465486 
L 126.2 161.472034 
L 129 160.412103 
L 131.8 159.267677 
L 134.6 159.093143 
L 137.4 157.450806 
L 140.2 158.352965 
L 143 160.435358 
L 145.8 156.863316 
L 148.6 155.583808 
L 151.4 154.223729 
L 154.2 158.655643 
L 157 152.531645 
L 159.8 156.740471 
L 162.6 151.125009 
L 165.4 155.73408 
L 168.2 154.215034 
L 171 155.77874 
L 173.8 155.468156 
L 176.6 151.99578 
L 179.4 147.281986 
L 182.2 144.473927 
L 185 149.977066 
L 187.8 148.180845 
L 190.6 142.495394 
L 193.4 144.451339 
" clip-path="url(#p46d1661672)" style="fill: none; stroke: #9467bd; stroke-width: 2; stroke-linecap: round"/>
   </g>
   <g id="legend_1">
    <g id="line2d_17">
     <path d="M 51.2 23.946875 
L 61.2 23.946875 
L 71.2 23.946875 
" style="fill: none; stroke: #30a2da; stroke-width: 2; stroke-linecap: round"/>
    </g>
    <g id="text_12">
     <!-- 0 -->
     <g style="fill: #262626" transform="translate(79.2 27.446875)scale(0.1 -0.1)">
      <use xlink:href="#LiberationSans-30"/>
     </g>
    </g>
    <g id="line2d_18">
     <path d="M 51.2 38.26875 
L 61.2 38.26875 
L 71.2 38.26875 
" style="fill: none; stroke: #fc4f30; stroke-width: 2; stroke-linecap: round"/>
    </g>
    <g id="text_13">
     <!-- 1 -->
     <g style="fill: #262626" transform="translate(79.2 41.76875)scale(0.1 -0.1)">
      <use xlink:href="#LiberationSans-31"/>
     </g>
    </g>
    <g id="line2d_19">
     <path d="M 51.2 52.590625 
L 61.2 52.590625 
L 71.2 52.590625 
" style="fill: none; stroke: #e5ae38; stroke-width: 2; stroke-linecap: round"/>
    </g>
    <g id="text_14">
     <!-- 2 -->
     <g style="fill: #262626" transform="translate(79.2 56.090625)scale(0.1 -0.1)">
      <use xlink:href="#LiberationSans-32"/>
     </g>
    </g>
    <g id="line2d_20">
     <path d="M 51.2 66.9125 
L 61.2 66.9125 
L 71.2 66.9125 
" style="fill: none; stroke: #6d904f; stroke-width: 2; stroke-linecap: round"/>
    </g>
    <g id="text_15">
     <!-- 3 -->
     <g style="fill: #262626" transform="translate(79.2 70.4125)scale(0.1 -0.1)">
      <defs>
       <path id="LiberationSans-33" d="M 3278 1216 
Q 3278 606 2890 271 
Q 2503 -63 1784 -63 
Q 1116 -63 717 239 
Q 319 541 244 1131 
L 825 1184 
Q 938 403 1784 403 
Q 2209 403 2451 612 
Q 2694 822 2694 1234 
Q 2694 1594 2417 1795 
Q 2141 1997 1619 1997 
L 1300 1997 
L 1300 2484 
L 1606 2484 
Q 2069 2484 2323 2686 
Q 2578 2888 2578 3244 
Q 2578 3597 2370 3801 
Q 2163 4006 1753 4006 
Q 1381 4006 1151 3815 
Q 922 3625 884 3278 
L 319 3322 
Q 381 3863 767 4166 
Q 1153 4469 1759 4469 
Q 2422 4469 2789 4161 
Q 3156 3853 3156 3303 
Q 3156 2881 2920 2617 
Q 2684 2353 2234 2259 
L 2234 2247 
Q 2728 2194 3003 1916 
Q 3278 1638 3278 1216 
z
" transform="scale(0.015625)"/>
      </defs>
      <use xlink:href="#LiberationSans-33"/>
     </g>
    </g>
    <g id="line2d_21">
     <path d="M 104.760938 23.946875 
L 114.760938 23.946875 
L 124.760938 23.946875 
" style="fill: none; stroke: #8b8b8b; stroke-width: 2; stroke-linecap: round"/>
    </g>
    <g id="text_16">
     <!-- 4 -->
     <g style="fill: #262626" transform="translate(132.760938 27.446875)scale(0.1 -0.1)">
      <use xlink:href="#LiberationSans-34"/>
     </g>
    </g>
    <g id="line2d_22">
     <path d="M 104.760938 38.26875 
L 114.760938 38.26875 
L 124.760938 38.26875 
" style="fill: none; stroke: #17becf; stroke-width: 2; stroke-linecap: round"/>
    </g>
    <g id="text_17">
     <!-- 5 -->
     <g style="fill: #262626" transform="translate(132.760938 41.76875)scale(0.1 -0.1)">
      <defs>
       <path id="LiberationSans-35" d="M 3291 1434 
Q 3291 738 2877 337 
Q 2463 -63 1728 -63 
Q 1113 -63 734 206 
Q 356 475 256 984 
L 825 1050 
Q 1003 397 1741 397 
Q 2194 397 2450 670 
Q 2706 944 2706 1422 
Q 2706 1838 2448 2094 
Q 2191 2350 1753 2350 
Q 1525 2350 1328 2278 
Q 1131 2206 934 2034 
L 384 2034 
L 531 4403 
L 3034 4403 
L 3034 3925 
L 1044 3925 
L 959 2528 
Q 1325 2809 1869 2809 
Q 2519 2809 2905 2428 
Q 3291 2047 3291 1434 
z
" transform="scale(0.015625)"/>
      </defs>
      <use xlink:href="#LiberationSans-35"/>
     </g>
    </g>
    <g id="line2d_23">
     <path d="M 104.760938 52.590625 
L 114.760938 52.590625 
L 124.760938 52.590625 
" style="fill: none; stroke: #9467bd; stroke-width: 2; stroke-linecap: round"/>
    </g>
    <g id="text_18">
     <!-- 6 -->
     <g style="fill: #262626" transform="translate(132.760938 56.090625)scale(0.1 -0.1)">
      <use xlink:href="#LiberationSans-36"/>
     </g>
    </g>
   </g>
  </g>
 </g>
 <defs>
  <clipPath id="p46d1661672">
   <rect x="42.2" y="11.2" width="151.2" height="151.2"/>
  </clipPath>
 </defs>
</svg>
