<?xml version="1.0" encoding="utf-8" standalone="no"?>
<!DOCTYPE svg PUBLIC "-//W3C//DTD SVG 1.1//EN"
  "http://www.w3.org/Graphics/SVG/1.1/DTD/svg11.dtd">
<svg xmlns:xlink="http://www.w3.org/1999/xlink" width="248.048543pt" height="248.048543pt" viewBox="0 0 248.048543 248.048543" xmlns="http://www.w3.org/2000/svg" version="1.1">
 <metadata>
  <rdf:RDF xmlns:dc="http://purl.org/dc/elements/1.1/" xmlns:cc="http://creativecommons.org/ns#" xmlns:rdf="http://www.w3.org/1999/02/22-rdf-syntax-ns#">
   <cc:Work>
    <dc:type rdf:resource="http://purl.org/dc/dcmitype/StillImage"/>
    <dc:date>2022-01-07T17:35:00.490046</dc:date>
    <dc:format>image/svg+xml</dc:format>
    <dc:creator>
     <cc:Agent>
      <dc:title>Matplotlib v3.5.1, https://matplotlib.org/</dc:title>
     </cc:Agent>
    </dc:creator>
   </cc:Work>
  </rdf:RDF>
 </metadata>
 <defs>
  <style type="text/css">*{stroke-linejoin: round; stroke-linecap: butt}</style>
 </defs>
 <g id="figure_1">
  <g id="patch_1">
   <path d="M 0 248.048543 
L 248.048543 248.048543 
L 248.048543 0 
L 0 0 
z
" style="fill: #ffffff"/>
  </g>
  <g id="axes_1">
   <g id="patch_2">
    <path d="M 39.248543 208.8 
L 240.848543 208.8 
L 240.848543 7.2 
L 39.248543 7.2 
z
" style="fill: #eaeaf2"/>
   </g>
   <g id="QuadMesh_1">
    <path d="M 39.248543 208.8 
L 68.048543 208.8 
L 68.048543 180 
L 39.248543 180 
L 39.248543 208.8 
" clip-path="url(#p8d3da01301)" style="fill: #6aaed6"/>
    <path d="M 68.048543 208.8 
L 96.848543 208.8 
L 96.848543 180 
L 68.048543 180 
L 68.048543 208.8 
" clip-path="url(#p8d3da01301)" style="fill: #f7fbff"/>
    <path d="M 96.848543 208.8 
L 125.648543 208.8 
L 125.648543 180 
L 96.848543 180 
L 96.848543 208.8 
" clip-path="url(#p8d3da01301)" style="fill: #f7fbff"/>
    <path d="M 125.648543 208.8 
L 154.448543 208.8 
L 154.448543 180 
L 125.648543 180 
L 125.648543 208.8 
" clip-path="url(#p8d3da01301)" style="fill: #f7fbff"/>
    <path d="M 154.448543 208.8 
L 183.248543 208.8 
L 183.248543 180 
L 154.448543 180 
L 154.448543 208.8 
" clip-path="url(#p8d3da01301)" style="fill: #f7fbff"/>
    <path d="M 183.248543 208.8 
L 212.048543 208.8 
L 212.048543 180 
L 183.248543 180 
L 183.248543 208.8 
" clip-path="url(#p8d3da01301)" style="fill: #f7fbff"/>
    <path d="M 212.048543 208.8 
L 240.848543 208.8 
L 240.848543 180 
L 212.048543 180 
L 212.048543 208.8 
" clip-path="url(#p8d3da01301)" style="fill: #f7fbff"/>
    <path d="M 39.248543 180 
L 68.048543 180 
L 68.048543 151.2 
L 39.248543 151.2 
L 39.248543 180 
" clip-path="url(#p8d3da01301)" style="fill: #bdd7ec"/>
    <path d="M 68.048543 180 
L 96.848543 180 
L 96.848543 151.2 
L 68.048543 151.2 
L 68.048543 180 
" clip-path="url(#p8d3da01301)" style="fill: #cbdef1"/>
    <path d="M 96.848543 180 
L 125.648543 180 
L 125.648543 151.2 
L 96.848543 151.2 
L 96.848543 180 
" clip-path="url(#p8d3da01301)" style="fill: #f7fbff"/>
    <path d="M 125.648543 180 
L 154.448543 180 
L 154.448543 151.2 
L 125.648543 151.2 
L 125.648543 180 
" clip-path="url(#p8d3da01301)" style="fill: #f7fbff"/>
    <path d="M 154.448543 180 
L 183.248543 180 
L 183.248543 151.2 
L 154.448543 151.2 
L 154.448543 180 
" clip-path="url(#p8d3da01301)" style="fill: #f7fbff"/>
    <path d="M 183.248543 180 
L 212.048543 180 
L 212.048543 151.2 
L 183.248543 151.2 
L 183.248543 180 
" clip-path="url(#p8d3da01301)" style="fill: #f7fbff"/>
    <path d="M 212.048543 180 
L 240.848543 180 
L 240.848543 151.2 
L 212.048543 151.2 
L 212.048543 180 
" clip-path="url(#p8d3da01301)" style="fill: #f7fbff"/>
    <path d="M 39.248543 151.2 
L 68.048543 151.2 
L 68.048543 122.4 
L 39.248543 122.4 
L 39.248543 151.2 
" clip-path="url(#p8d3da01301)" style="fill: #afd1e7"/>
    <path d="M 68.048543 151.2 
L 96.848543 151.2 
L 96.848543 122.4 
L 68.048543 122.4 
L 68.048543 151.2 
" clip-path="url(#p8d3da01301)" style="fill: #f7fbff"/>
    <path d="M 96.848543 151.2 
L 125.648543 151.2 
L 125.648543 122.4 
L 96.848543 122.4 
L 96.848543 151.2 
" clip-path="url(#p8d3da01301)" style="fill: #d3e4f3"/>
    <path d="M 125.648543 151.2 
L 154.448543 151.2 
L 154.448543 122.4 
L 125.648543 122.4 
L 125.648543 151.2 
" clip-path="url(#p8d3da01301)" style="fill: #f7fbff"/>
    <path d="M 154.448543 151.2 
L 183.248543 151.2 
L 183.248543 122.4 
L 154.448543 122.4 
L 154.448543 151.2 
" clip-path="url(#p8d3da01301)" style="fill: #f7fbff"/>
    <path d="M 183.248543 151.2 
L 212.048543 151.2 
L 212.048543 122.4 
L 183.248543 122.4 
L 183.248543 151.2 
" clip-path="url(#p8d3da01301)" style="fill: #f7fbff"/>
    <path d="M 212.048543 151.2 
L 240.848543 151.2 
L 240.848543 122.4 
L 212.048543 122.4 
L 212.048543 151.2 
" clip-path="url(#p8d3da01301)" style="fill: #f7fbff"/>
    <path d="M 39.248543 122.4 
L 68.048543 122.4 
L 68.048543 93.6 
L 39.248543 93.6 
L 39.248543 122.4 
" clip-path="url(#p8d3da01301)" style="fill: #d6e6f4"/>
    <path d="M 68.048543 122.4 
L 96.848543 122.4 
L 96.848543 93.6 
L 68.048543 93.6 
L 68.048543 122.4 
" clip-path="url(#p8d3da01301)" style="fill: #f7fbff"/>
    <path d="M 96.848543 122.4 
L 125.648543 122.4 
L 125.648543 93.6 
L 96.848543 93.6 
L 96.848543 122.4 
" clip-path="url(#p8d3da01301)" style="fill: #f7fbff"/>
    <path d="M 125.648543 122.4 
L 154.448543 122.4 
L 154.448543 93.6 
L 125.648543 93.6 
L 125.648543 122.4 
" clip-path="url(#p8d3da01301)" style="fill: #aacfe5"/>
    <path d="M 154.448543 122.4 
L 183.248543 122.4 
L 183.248543 93.6 
L 154.448543 93.6 
L 154.448543 122.4 
" clip-path="url(#p8d3da01301)" style="fill: #f7fbff"/>
    <path d="M 183.248543 122.4 
L 212.048543 122.4 
L 212.048543 93.6 
L 183.248543 93.6 
L 183.248543 122.4 
" clip-path="url(#p8d3da01301)" style="fill: #f7fbff"/>
    <path d="M 212.048543 122.4 
L 240.848543 122.4 
L 240.848543 93.6 
L 212.048543 93.6 
L 212.048543 122.4 
" clip-path="url(#p8d3da01301)" style="fill: #f7fbff"/>
    <path d="M 39.248543 93.6 
L 68.048543 93.6 
L 68.048543 64.8 
L 39.248543 64.8 
L 39.248543 93.6 
" clip-path="url(#p8d3da01301)" style="fill: #cfe1f2"/>
    <path d="M 68.048543 93.6 
L 96.848543 93.6 
L 96.848543 64.8 
L 68.048543 64.8 
L 68.048543 93.6 
" clip-path="url(#p8d3da01301)" style="fill: #f7fbff"/>
    <path d="M 96.848543 93.6 
L 125.648543 93.6 
L 125.648543 64.8 
L 96.848543 64.8 
L 96.848543 93.6 
" clip-path="url(#p8d3da01301)" style="fill: #f7fbff"/>
    <path d="M 125.648543 93.6 
L 154.448543 93.6 
L 154.448543 64.8 
L 125.648543 64.8 
L 125.648543 93.6 
" clip-path="url(#p8d3da01301)" style="fill: #f7fbff"/>
    <path d="M 154.448543 93.6 
L 183.248543 93.6 
L 183.248543 64.8 
L 154.448543 64.8 
L 154.448543 93.6 
" clip-path="url(#p8d3da01301)" style="fill: #b8d5ea"/>
    <path d="M 183.248543 93.6 
L 212.048543 93.6 
L 212.048543 64.8 
L 183.248543 64.8 
L 183.248543 93.6 
" clip-path="url(#p8d3da01301)" style="fill: #f7fbff"/>
    <path d="M 212.048543 93.6 
L 240.848543 93.6 
L 240.848543 64.8 
L 212.048543 64.8 
L 212.048543 93.6 
" clip-path="url(#p8d3da01301)" style="fill: #f7fbff"/>
    <path d="M 39.248543 64.8 
L 68.048543 64.8 
L 68.048543 36 
L 39.248543 36 
L 39.248543 64.8 
" clip-path="url(#p8d3da01301)" style="fill: #f7fbff"/>
    <path d="M 68.048543 64.8 
L 96.848543 64.8 
L 96.848543 36 
L 68.048543 36 
L 68.048543 64.8 
" clip-path="url(#p8d3da01301)" style="fill: #f7fbff"/>
    <path d="M 96.848543 64.8 
L 125.648543 64.8 
L 125.648543 36 
L 96.848543 36 
L 96.848543 64.8 
" clip-path="url(#p8d3da01301)" style="fill: #f7fbff"/>
    <path d="M 125.648543 64.8 
L 154.448543 64.8 
L 154.448543 36 
L 125.648543 36 
L 125.648543 64.8 
" clip-path="url(#p8d3da01301)" style="fill: #f7fbff"/>
    <path d="M 154.448543 64.8 
L 183.248543 64.8 
L 183.248543 36 
L 154.448543 36 
L 154.448543 64.8 
" clip-path="url(#p8d3da01301)" style="fill: #f7fbff"/>
    <path d="M 183.248543 64.8 
L 212.048543 64.8 
L 212.048543 36 
L 183.248543 36 
L 183.248543 64.8 
" clip-path="url(#p8d3da01301)" style="fill: #f7fbff"/>
    <path d="M 212.048543 64.8 
L 240.848543 64.8 
L 240.848543 36 
L 212.048543 36 
L 212.048543 64.8 
" clip-path="url(#p8d3da01301)" style="fill: #f7fbff"/>
    <path d="M 39.248543 36 
L 68.048543 36 
L 68.048543 7.2 
L 39.248543 7.2 
L 39.248543 36 
" clip-path="url(#p8d3da01301)" style="fill: #6fb0d7"/>
    <path d="M 68.048543 36 
L 96.848543 36 
L 96.848543 7.2 
L 68.048543 7.2 
L 68.048543 36 
" clip-path="url(#p8d3da01301)" style="fill: #f7fbff"/>
    <path d="M 96.848543 36 
L 125.648543 36 
L 125.648543 7.2 
L 96.848543 7.2 
L 96.848543 36 
" clip-path="url(#p8d3da01301)" style="fill: #f7fbff"/>
    <path d="M 125.648543 36 
L 154.448543 36 
L 154.448543 7.2 
L 125.648543 7.2 
L 125.648543 36 
" clip-path="url(#p8d3da01301)" style="fill: #f7fbff"/>
    <path d="M 154.448543 36 
L 183.248543 36 
L 183.248543 7.2 
L 154.448543 7.2 
L 154.448543 36 
" clip-path="url(#p8d3da01301)" style="fill: #f5f9fe"/>
    <path d="M 183.248543 36 
L 212.048543 36 
L 212.048543 7.2 
L 183.248543 7.2 
L 183.248543 36 
" clip-path="url(#p8d3da01301)" style="fill: #f7fbff"/>
    <path d="M 212.048543 36 
L 240.848543 36 
L 240.848543 7.2 
L 212.048543 7.2 
L 212.048543 36 
" clip-path="url(#p8d3da01301)" style="fill: #f7fbff"/>
   </g>
   <g id="matplotlib.axis_1">
    <g id="xtick_1">
     <g id="line2d_1"/>
     <g id="text_1">
      <!-- 0 -->
      <g style="fill: #262626" transform="translate(53.510989 224.856491)rotate(-45)scale(0.1 -0.1)">
       <defs>
        <path id="LiberationSans-30" d="M 3309 2203 
Q 3309 1100 2920 518 
Q 2531 -63 1772 -63 
Q 1013 -63 631 515 
Q 250 1094 250 2203 
Q 250 3338 620 3903 
Q 991 4469 1791 4469 
Q 2569 4469 2939 3897 
Q 3309 3325 3309 2203 
z
M 2738 2203 
Q 2738 3156 2517 3584 
Q 2297 4013 1791 4013 
Q 1272 4013 1045 3591 
Q 819 3169 819 2203 
Q 819 1266 1048 831 
Q 1278 397 1778 397 
Q 2275 397 2506 840 
Q 2738 1284 2738 2203 
z
" transform="scale(0.015625)"/>
       </defs>
       <use xlink:href="#LiberationSans-30"/>
      </g>
     </g>
    </g>
    <g id="xtick_2">
     <g id="line2d_2"/>
     <g id="text_2">
      <!-- 1 -->
      <g style="fill: #262626" transform="translate(82.310989 224.856491)rotate(-45)scale(0.1 -0.1)">
       <defs>
        <path id="LiberationSans-31" d="M 488 0 
L 488 478 
L 1609 478 
L 1609 3866 
L 616 3156 
L 616 3688 
L 1656 4403 
L 2175 4403 
L 2175 478 
L 3247 478 
L 3247 0 
L 488 0 
z
" transform="scale(0.015625)"/>
       </defs>
       <use xlink:href="#LiberationSans-31"/>
      </g>
     </g>
    </g>
    <g id="xtick_3">
     <g id="line2d_3"/>
     <g id="text_3">
      <!-- 2 -->
      <g style="fill: #262626" transform="translate(111.110989 224.856491)rotate(-45)scale(0.1 -0.1)">
       <defs>
        <path id="LiberationSans-32" d="M 322 0 
L 322 397 
Q 481 763 711 1042 
Q 941 1322 1194 1548 
Q 1447 1775 1695 1969 
Q 1944 2163 2144 2356 
Q 2344 2550 2467 2762 
Q 2591 2975 2591 3244 
Q 2591 3606 2378 3806 
Q 2166 4006 1788 4006 
Q 1428 4006 1195 3811 
Q 963 3616 922 3263 
L 347 3316 
Q 409 3844 795 4156 
Q 1181 4469 1788 4469 
Q 2453 4469 2811 4155 
Q 3169 3841 3169 3263 
Q 3169 3006 3051 2753 
Q 2934 2500 2703 2247 
Q 2472 1994 1819 1463 
Q 1459 1169 1246 933 
Q 1034 697 941 478 
L 3238 478 
L 3238 0 
L 322 0 
z
" transform="scale(0.015625)"/>
       </defs>
       <use xlink:href="#LiberationSans-32"/>
      </g>
     </g>
    </g>
    <g id="xtick_4">
     <g id="line2d_4"/>
     <g id="text_4">
      <!-- 3 -->
      <g style="fill: #262626" transform="translate(139.910989 224.856491)rotate(-45)scale(0.1 -0.1)">
       <defs>
        <path id="LiberationSans-33" d="M 3278 1216 
Q 3278 606 2890 271 
Q 2503 -63 1784 -63 
Q 1116 -63 717 239 
Q 319 541 244 1131 
L 825 1184 
Q 938 403 1784 403 
Q 2209 403 2451 612 
Q 2694 822 2694 1234 
Q 2694 1594 2417 1795 
Q 2141 1997 1619 1997 
L 1300 1997 
L 1300 2484 
L 1606 2484 
Q 2069 2484 2323 2686 
Q 2578 2888 2578 3244 
Q 2578 3597 2370 3801 
Q 2163 4006 1753 4006 
Q 1381 4006 1151 3815 
Q 922 3625 884 3278 
L 319 3322 
Q 381 3863 767 4166 
Q 1153 4469 1759 4469 
Q 2422 4469 2789 4161 
Q 3156 3853 3156 3303 
Q 3156 2881 2920 2617 
Q 2684 2353 2234 2259 
L 2234 2247 
Q 2728 2194 3003 1916 
Q 3278 1638 3278 1216 
z
" transform="scale(0.015625)"/>
       </defs>
       <use xlink:href="#LiberationSans-33"/>
      </g>
     </g>
    </g>
    <g id="xtick_5">
     <g id="line2d_5"/>
     <g id="text_5">
      <!-- 4 -->
      <g style="fill: #262626" transform="translate(168.710989 224.856491)rotate(-45)scale(0.1 -0.1)">
       <defs>
        <path id="LiberationSans-34" d="M 2753 997 
L 2753 0 
L 2222 0 
L 2222 997 
L 147 997 
L 147 1434 
L 2163 4403 
L 2753 4403 
L 2753 1441 
L 3372 1441 
L 3372 997 
L 2753 997 
z
M 2222 3769 
Q 2216 3750 2134 3603 
Q 2053 3456 2013 3397 
L 884 1734 
L 716 1503 
L 666 1441 
L 2222 1441 
L 2222 3769 
z
" transform="scale(0.015625)"/>
       </defs>
       <use xlink:href="#LiberationSans-34"/>
      </g>
     </g>
    </g>
    <g id="xtick_6">
     <g id="line2d_6"/>
     <g id="text_6">
      <!-- 5 -->
      <g style="fill: #262626" transform="translate(197.510989 224.856491)rotate(-45)scale(0.1 -0.1)">
       <defs>
        <path id="LiberationSans-35" d="M 3291 1434 
Q 3291 738 2877 337 
Q 2463 -63 1728 -63 
Q 1113 -63 734 206 
Q 356 475 256 984 
L 825 1050 
Q 1003 397 1741 397 
Q 2194 397 2450 670 
Q 2706 944 2706 1422 
Q 2706 1838 2448 2094 
Q 2191 2350 1753 2350 
Q 1525 2350 1328 2278 
Q 1131 2206 934 2034 
L 384 2034 
L 531 4403 
L 3034 4403 
L 3034 3925 
L 1044 3925 
L 959 2528 
Q 1325 2809 1869 2809 
Q 2519 2809 2905 2428 
Q 3291 2047 3291 1434 
z
" transform="scale(0.015625)"/>
       </defs>
       <use xlink:href="#LiberationSans-35"/>
      </g>
     </g>
    </g>
    <g id="xtick_7">
     <g id="line2d_7"/>
     <g id="text_7">
      <!-- 6 -->
      <g style="fill: #262626" transform="translate(226.310989 224.856491)rotate(-45)scale(0.1 -0.1)">
       <defs>
        <path id="LiberationSans-36" d="M 3278 1441 
Q 3278 744 2900 340 
Q 2522 -63 1856 -63 
Q 1113 -63 719 490 
Q 325 1044 325 2100 
Q 325 3244 734 3856 
Q 1144 4469 1900 4469 
Q 2897 4469 3156 3572 
L 2619 3475 
Q 2453 4013 1894 4013 
Q 1413 4013 1148 3564 
Q 884 3116 884 2266 
Q 1038 2550 1316 2698 
Q 1594 2847 1953 2847 
Q 2563 2847 2920 2465 
Q 3278 2084 3278 1441 
z
M 2706 1416 
Q 2706 1894 2472 2153 
Q 2238 2413 1819 2413 
Q 1425 2413 1183 2183 
Q 941 1953 941 1550 
Q 941 1041 1192 716 
Q 1444 391 1838 391 
Q 2244 391 2475 664 
Q 2706 938 2706 1416 
z
" transform="scale(0.015625)"/>
       </defs>
       <use xlink:href="#LiberationSans-36"/>
      </g>
     </g>
    </g>
    <g id="text_8">
     <!-- Vorhergesagte Klasse -->
     <g style="fill: #262626" transform="translate(86.237918 238.2953)scale(0.11 -0.11)">
      <defs>
       <path id="LiberationSans-56" d="M 2444 0 
L 1825 0 
L 28 4403 
L 656 4403 
L 1875 1303 
L 2138 525 
L 2400 1303 
L 3613 4403 
L 4241 4403 
L 2444 0 
z
" transform="scale(0.015625)"/>
       <path id="LiberationSans-6f" d="M 3291 1694 
Q 3291 806 2900 371 
Q 2509 -63 1766 -63 
Q 1025 -63 647 389 
Q 269 841 269 1694 
Q 269 3444 1784 3444 
Q 2559 3444 2925 3017 
Q 3291 2591 3291 1694 
z
M 2700 1694 
Q 2700 2394 2492 2711 
Q 2284 3028 1794 3028 
Q 1300 3028 1079 2704 
Q 859 2381 859 1694 
Q 859 1025 1076 689 
Q 1294 353 1759 353 
Q 2266 353 2483 678 
Q 2700 1003 2700 1694 
z
" transform="scale(0.015625)"/>
       <path id="LiberationSans-72" d="M 444 0 
L 444 2594 
Q 444 2950 425 3381 
L 956 3381 
Q 981 2806 981 2691 
L 994 2691 
Q 1128 3125 1303 3284 
Q 1478 3444 1797 3444 
Q 1909 3444 2025 3413 
L 2025 2897 
Q 1913 2928 1725 2928 
Q 1375 2928 1190 2626 
Q 1006 2325 1006 1763 
L 1006 0 
L 444 0 
z
" transform="scale(0.015625)"/>
       <path id="LiberationSans-68" d="M 991 2803 
Q 1172 3134 1426 3289 
Q 1681 3444 2072 3444 
Q 2622 3444 2883 3170 
Q 3144 2897 3144 2253 
L 3144 0 
L 2578 0 
L 2578 2144 
Q 2578 2500 2512 2673 
Q 2447 2847 2297 2928 
Q 2147 3009 1881 3009 
Q 1484 3009 1245 2734 
Q 1006 2459 1006 1994 
L 1006 0 
L 444 0 
L 444 4638 
L 1006 4638 
L 1006 3431 
Q 1006 3241 995 3037 
Q 984 2834 981 2803 
L 991 2803 
z
" transform="scale(0.015625)"/>
       <path id="LiberationSans-65" d="M 863 1572 
Q 863 991 1103 675 
Q 1344 359 1806 359 
Q 2172 359 2392 506 
Q 2613 653 2691 878 
L 3184 738 
Q 2881 -63 1806 -63 
Q 1056 -63 664 384 
Q 272 831 272 1713 
Q 272 2550 664 2997 
Q 1056 3444 1784 3444 
Q 3275 3444 3275 1647 
L 3275 1572 
L 863 1572 
z
M 2694 2003 
Q 2647 2538 2422 2783 
Q 2197 3028 1775 3028 
Q 1366 3028 1127 2754 
Q 888 2481 869 2003 
L 2694 2003 
z
" transform="scale(0.015625)"/>
       <path id="LiberationSans-67" d="M 1713 -1328 
Q 1159 -1328 831 -1111 
Q 503 -894 409 -494 
L 975 -413 
Q 1031 -647 1223 -773 
Q 1416 -900 1728 -900 
Q 2569 -900 2569 84 
L 2569 628 
L 2563 628 
Q 2403 303 2125 139 
Q 1847 -25 1475 -25 
Q 853 -25 561 387 
Q 269 800 269 1684 
Q 269 2581 583 3007 
Q 897 3434 1538 3434 
Q 1897 3434 2161 3270 
Q 2425 3106 2569 2803 
L 2575 2803 
Q 2575 2897 2587 3128 
Q 2600 3359 2613 3381 
L 3147 3381 
Q 3128 3213 3128 2681 
L 3128 97 
Q 3128 -1328 1713 -1328 
z
M 2569 1691 
Q 2569 2103 2456 2401 
Q 2344 2700 2139 2858 
Q 1934 3016 1675 3016 
Q 1244 3016 1047 2703 
Q 850 2391 850 1691 
Q 850 997 1034 694 
Q 1219 391 1666 391 
Q 1931 391 2137 547 
Q 2344 703 2456 995 
Q 2569 1288 2569 1691 
z
" transform="scale(0.015625)"/>
       <path id="LiberationSans-73" d="M 2969 934 
Q 2969 456 2608 196 
Q 2247 -63 1597 -63 
Q 966 -63 623 145 
Q 281 353 178 794 
L 675 891 
Q 747 619 972 492 
Q 1197 366 1597 366 
Q 2025 366 2223 497 
Q 2422 628 2422 891 
Q 2422 1091 2284 1216 
Q 2147 1341 1841 1422 
L 1438 1528 
Q 953 1653 748 1773 
Q 544 1894 428 2066 
Q 313 2238 313 2488 
Q 313 2950 642 3192 
Q 972 3434 1603 3434 
Q 2163 3434 2492 3237 
Q 2822 3041 2909 2606 
L 2403 2544 
Q 2356 2769 2151 2889 
Q 1947 3009 1603 3009 
Q 1222 3009 1040 2893 
Q 859 2778 859 2544 
Q 859 2400 934 2306 
Q 1009 2213 1156 2147 
Q 1303 2081 1775 1966 
Q 2222 1853 2419 1758 
Q 2616 1663 2730 1547 
Q 2844 1431 2906 1279 
Q 2969 1128 2969 934 
z
" transform="scale(0.015625)"/>
       <path id="LiberationSans-61" d="M 1294 -63 
Q 784 -63 528 206 
Q 272 475 272 944 
Q 272 1469 617 1750 
Q 963 2031 1731 2050 
L 2491 2063 
L 2491 2247 
Q 2491 2659 2316 2837 
Q 2141 3016 1766 3016 
Q 1388 3016 1216 2887 
Q 1044 2759 1009 2478 
L 422 2531 
Q 566 3444 1778 3444 
Q 2416 3444 2737 3151 
Q 3059 2859 3059 2306 
L 3059 850 
Q 3059 600 3125 473 
Q 3191 347 3375 347 
Q 3456 347 3559 369 
L 3559 19 
Q 3347 -31 3125 -31 
Q 2813 -31 2670 133 
Q 2528 297 2509 647 
L 2491 647 
Q 2275 259 1989 98 
Q 1703 -63 1294 -63 
z
M 1422 359 
Q 1731 359 1972 500 
Q 2213 641 2352 886 
Q 2491 1131 2491 1391 
L 2491 1669 
L 1875 1656 
Q 1478 1650 1273 1575 
Q 1069 1500 959 1344 
Q 850 1188 850 934 
Q 850 659 998 509 
Q 1147 359 1422 359 
z
" transform="scale(0.015625)"/>
       <path id="LiberationSans-74" d="M 1731 25 
Q 1453 -50 1163 -50 
Q 488 -50 488 716 
L 488 2972 
L 97 2972 
L 97 3381 
L 509 3381 
L 675 4138 
L 1050 4138 
L 1050 3381 
L 1675 3381 
L 1675 2972 
L 1050 2972 
L 1050 838 
Q 1050 594 1129 495 
Q 1209 397 1406 397 
Q 1519 397 1731 441 
L 1731 25 
z
" transform="scale(0.015625)"/>
       <path id="LiberationSans-20" transform="scale(0.015625)"/>
       <path id="LiberationSans-4b" d="M 3456 0 
L 1697 2125 
L 1122 1688 
L 1122 0 
L 525 0 
L 525 4403 
L 1122 4403 
L 1122 2197 
L 3244 4403 
L 3947 4403 
L 2072 2491 
L 4197 0 
L 3456 0 
z
" transform="scale(0.015625)"/>
       <path id="LiberationSans-6c" d="M 431 0 
L 431 4638 
L 994 4638 
L 994 0 
L 431 0 
z
" transform="scale(0.015625)"/>
      </defs>
      <use xlink:href="#LiberationSans-56"/>
      <use xlink:href="#LiberationSans-6f" x="61.199219"/>
      <use xlink:href="#LiberationSans-72" x="116.814453"/>
      <use xlink:href="#LiberationSans-68" x="150.115234"/>
      <use xlink:href="#LiberationSans-65" x="205.730469"/>
      <use xlink:href="#LiberationSans-72" x="261.345703"/>
      <use xlink:href="#LiberationSans-67" x="294.646484"/>
      <use xlink:href="#LiberationSans-65" x="350.261719"/>
      <use xlink:href="#LiberationSans-73" x="405.876953"/>
      <use xlink:href="#LiberationSans-61" x="455.876953"/>
      <use xlink:href="#LiberationSans-67" x="511.492188"/>
      <use xlink:href="#LiberationSans-74" x="567.107422"/>
      <use xlink:href="#LiberationSans-65" x="594.890625"/>
      <use xlink:href="#LiberationSans-20" x="650.505859"/>
      <use xlink:href="#LiberationSans-4b" x="678.289062"/>
      <use xlink:href="#LiberationSans-6c" x="744.988281"/>
      <use xlink:href="#LiberationSans-61" x="767.205078"/>
      <use xlink:href="#LiberationSans-73" x="822.820312"/>
      <use xlink:href="#LiberationSans-73" x="872.820312"/>
      <use xlink:href="#LiberationSans-65" x="922.820312"/>
     </g>
    </g>
   </g>
   <g id="matplotlib.axis_2">
    <g id="ytick_1">
     <g id="line2d_8"/>
     <g id="text_9">
      <!-- 0 -->
      <g style="fill: #262626" transform="translate(23.192052 195.900877)rotate(-315)scale(0.1 -0.1)">
       <use xlink:href="#LiberationSans-30"/>
      </g>
     </g>
    </g>
    <g id="ytick_2">
     <g id="line2d_9"/>
     <g id="text_10">
      <!-- 1 -->
      <g style="fill: #262626" transform="translate(23.192052 167.100877)rotate(-315)scale(0.1 -0.1)">
       <use xlink:href="#LiberationSans-31"/>
      </g>
     </g>
    </g>
    <g id="ytick_3">
     <g id="line2d_10"/>
     <g id="text_11">
      <!-- 2 -->
      <g style="fill: #262626" transform="translate(23.192052 138.300877)rotate(-315)scale(0.1 -0.1)">
       <use xlink:href="#LiberationSans-32"/>
      </g>
     </g>
    </g>
    <g id="ytick_4">
     <g id="line2d_11"/>
     <g id="text_12">
      <!-- 3 -->
      <g style="fill: #262626" transform="translate(23.192052 109.500877)rotate(-315)scale(0.1 -0.1)">
       <use xlink:href="#LiberationSans-33"/>
      </g>
     </g>
    </g>
    <g id="ytick_5">
     <g id="line2d_12"/>
     <g id="text_13">
      <!-- 4 -->
      <g style="fill: #262626" transform="translate(23.192052 80.700877)rotate(-315)scale(0.1 -0.1)">
       <use xlink:href="#LiberationSans-34"/>
      </g>
     </g>
    </g>
    <g id="ytick_6">
     <g id="line2d_13"/>
     <g id="text_14">
      <!-- 5 -->
      <g style="fill: #262626" transform="translate(23.192052 51.900877)rotate(-315)scale(0.1 -0.1)">
       <use xlink:href="#LiberationSans-35"/>
      </g>
     </g>
    </g>
    <g id="ytick_7">
     <g id="line2d_14"/>
     <g id="text_15">
      <!-- 6 -->
      <g style="fill: #262626" transform="translate(23.192052 23.100877)rotate(-315)scale(0.1 -0.1)">
       <use xlink:href="#LiberationSans-36"/>
      </g>
     </g>
    </g>
    <g id="text_16">
     <!-- Tatsächliche Klasse -->
     <g style="fill: #262626" transform="translate(15.442306 156.297734)rotate(-90)scale(0.11 -0.11)">
      <defs>
       <path id="LiberationSans-54" d="M 2250 3916 
L 2250 0 
L 1656 0 
L 1656 3916 
L 144 3916 
L 144 4403 
L 3763 4403 
L 3763 3916 
L 2250 3916 
z
" transform="scale(0.015625)"/>
       <path id="LiberationSans-e4" d="M 1294 -63 
Q 784 -63 528 206 
Q 272 475 272 944 
Q 272 1469 617 1750 
Q 963 2031 1731 2050 
L 2491 2063 
L 2491 2247 
Q 2491 2659 2316 2837 
Q 2141 3016 1766 3016 
Q 1388 3016 1216 2887 
Q 1044 2759 1009 2478 
L 422 2531 
Q 566 3444 1778 3444 
Q 2416 3444 2737 3151 
Q 3059 2859 3059 2306 
L 3059 850 
Q 3059 600 3125 473 
Q 3191 347 3375 347 
Q 3456 347 3559 369 
L 3559 19 
Q 3347 -31 3125 -31 
Q 2813 -31 2670 133 
Q 2528 297 2509 647 
L 2491 647 
Q 2275 259 1989 98 
Q 1703 -63 1294 -63 
z
M 1422 359 
Q 1731 359 1972 500 
Q 2213 641 2352 886 
Q 2491 1131 2491 1391 
L 2491 1669 
L 1875 1656 
Q 1478 1650 1273 1575 
Q 1069 1500 959 1344 
Q 850 1188 850 934 
Q 850 659 998 509 
Q 1147 359 1422 359 
z
M 2108 3809 
L 2108 4384 
L 2617 4384 
L 2617 3809 
L 2108 3809 
z
M 877 3809 
L 877 4384 
L 1392 4384 
L 1392 3809 
L 877 3809 
z
" transform="scale(0.015625)"/>
       <path id="LiberationSans-63" d="M 859 1706 
Q 859 1031 1071 706 
Q 1284 381 1713 381 
Q 2013 381 2214 543 
Q 2416 706 2463 1044 
L 3031 1006 
Q 2966 519 2616 228 
Q 2266 -63 1728 -63 
Q 1019 -63 645 385 
Q 272 834 272 1694 
Q 272 2547 647 2995 
Q 1022 3444 1722 3444 
Q 2241 3444 2583 3175 
Q 2925 2906 3013 2434 
L 2434 2391 
Q 2391 2672 2212 2837 
Q 2034 3003 1706 3003 
Q 1259 3003 1059 2706 
Q 859 2409 859 1706 
z
" transform="scale(0.015625)"/>
       <path id="LiberationSans-69" d="M 428 4100 
L 428 4638 
L 991 4638 
L 991 4100 
L 428 4100 
z
M 428 0 
L 428 3381 
L 991 3381 
L 991 0 
L 428 0 
z
" transform="scale(0.015625)"/>
      </defs>
      <use xlink:href="#LiberationSans-54"/>
      <use xlink:href="#LiberationSans-61" x="49.958984"/>
      <use xlink:href="#LiberationSans-74" x="105.574219"/>
      <use xlink:href="#LiberationSans-73" x="133.357422"/>
      <use xlink:href="#LiberationSans-e4" x="183.357422"/>
      <use xlink:href="#LiberationSans-63" x="238.972656"/>
      <use xlink:href="#LiberationSans-68" x="288.972656"/>
      <use xlink:href="#LiberationSans-6c" x="344.587891"/>
      <use xlink:href="#LiberationSans-69" x="366.804688"/>
      <use xlink:href="#LiberationSans-63" x="389.021484"/>
      <use xlink:href="#LiberationSans-68" x="439.021484"/>
      <use xlink:href="#LiberationSans-65" x="494.636719"/>
      <use xlink:href="#LiberationSans-20" x="550.251953"/>
      <use xlink:href="#LiberationSans-4b" x="578.035156"/>
      <use xlink:href="#LiberationSans-6c" x="644.734375"/>
      <use xlink:href="#LiberationSans-61" x="666.951172"/>
      <use xlink:href="#LiberationSans-73" x="722.566406"/>
      <use xlink:href="#LiberationSans-73" x="772.566406"/>
      <use xlink:href="#LiberationSans-65" x="822.566406"/>
     </g>
    </g>
   </g>
   <g id="patch_3">
    <path d="M 39.248543 208.8 
L 39.248543 7.2 
" style="fill: none"/>
   </g>
   <g id="patch_4">
    <path d="M 240.848543 208.8 
L 240.848543 7.2 
" style="fill: none"/>
   </g>
   <g id="patch_5">
    <path d="M 39.248543 208.8 
L 240.848543 208.8 
" style="fill: none"/>
   </g>
   <g id="patch_6">
    <path d="M 39.248543 7.2 
L 240.848543 7.2 
" style="fill: none"/>
   </g>
   <g id="text_17">
    <!-- 99.24 -->
    <g style="fill: #262626" transform="translate(41.137606 196.985937)scale(0.1 -0.1)">
     <defs>
      <path id="LiberationSans-39" d="M 3256 2291 
Q 3256 1156 2842 546 
Q 2428 -63 1663 -63 
Q 1147 -63 836 154 
Q 525 372 391 856 
L 928 941 
Q 1097 391 1672 391 
Q 2156 391 2422 841 
Q 2688 1291 2700 2125 
Q 2575 1844 2272 1673 
Q 1969 1503 1606 1503 
Q 1013 1503 656 1909 
Q 300 2316 300 2988 
Q 300 3678 687 4073 
Q 1075 4469 1766 4469 
Q 2500 4469 2878 3925 
Q 3256 3381 3256 2291 
z
M 2644 2834 
Q 2644 3366 2400 3689 
Q 2156 4013 1747 4013 
Q 1341 4013 1106 3736 
Q 872 3459 872 2988 
Q 872 2506 1106 2226 
Q 1341 1947 1741 1947 
Q 1984 1947 2193 2058 
Q 2403 2169 2523 2372 
Q 2644 2575 2644 2834 
z
" transform="scale(0.015625)"/>
      <path id="LiberationSans-2e" d="M 584 0 
L 584 684 
L 1194 684 
L 1194 0 
L 584 0 
z
" transform="scale(0.015625)"/>
     </defs>
     <use xlink:href="#LiberationSans-39"/>
     <use xlink:href="#LiberationSans-39" x="55.615234"/>
     <use xlink:href="#LiberationSans-2e" x="111.230469"/>
     <use xlink:href="#LiberationSans-32" x="139.013672"/>
     <use xlink:href="#LiberationSans-34" x="194.628906"/>
    </g>
   </g>
   <g id="text_18">
    <!-- 55.11 -->
    <g style="fill: #262626" transform="translate(41.506356 168.185937)scale(0.1 -0.1)">
     <use xlink:href="#LiberationSans-35"/>
     <use xlink:href="#LiberationSans-35" x="55.615234"/>
     <use xlink:href="#LiberationSans-2e" x="111.230469"/>
     <use xlink:href="#LiberationSans-31" x="139.013672"/>
     <use xlink:href="#LiberationSans-31" x="187.253906"/>
    </g>
   </g>
   <g id="text_19">
    <!-- 63.92 -->
    <g style="fill: #262626" transform="translate(41.137606 139.385937)scale(0.1 -0.1)">
     <use xlink:href="#LiberationSans-36"/>
     <use xlink:href="#LiberationSans-33" x="55.615234"/>
     <use xlink:href="#LiberationSans-2e" x="111.230469"/>
     <use xlink:href="#LiberationSans-39" x="139.013672"/>
     <use xlink:href="#LiberationSans-32" x="194.628906"/>
    </g>
   </g>
   <g id="text_20">
    <!-- 33.02 -->
    <g style="fill: #262626" transform="translate(41.137606 110.585937)scale(0.1 -0.1)">
     <use xlink:href="#LiberationSans-33"/>
     <use xlink:href="#LiberationSans-33" x="55.615234"/>
     <use xlink:href="#LiberationSans-2e" x="111.230469"/>
     <use xlink:href="#LiberationSans-30" x="139.013672"/>
     <use xlink:href="#LiberationSans-32" x="194.628906"/>
    </g>
   </g>
   <g id="text_21">
    <!-- 40.91 -->
    <g style="fill: #262626" transform="translate(41.137606 81.785937)scale(0.1 -0.1)">
     <use xlink:href="#LiberationSans-34"/>
     <use xlink:href="#LiberationSans-30" x="55.615234"/>
     <use xlink:href="#LiberationSans-2e" x="111.230469"/>
     <use xlink:href="#LiberationSans-39" x="139.013672"/>
     <use xlink:href="#LiberationSans-31" x="194.628906"/>
    </g>
   </g>
   <g id="text_22">
    <!-- 0 -->
    <g style="fill: #262626" transform="translate(50.868075 52.985938)scale(0.1 -0.1)">
     <use xlink:href="#LiberationSans-30"/>
    </g>
   </g>
   <g id="text_23">
    <!-- 97.43 -->
    <g style="fill: #262626" transform="translate(41.137606 24.185937)scale(0.1 -0.1)">
     <defs>
      <path id="LiberationSans-37" d="M 3238 3947 
Q 2563 2916 2284 2331 
Q 2006 1747 1867 1178 
Q 1728 609 1728 0 
L 1141 0 
Q 1141 844 1498 1776 
Q 1856 2709 2694 3925 
L 328 3925 
L 328 4403 
L 3238 4403 
L 3238 3947 
z
" transform="scale(0.015625)"/>
     </defs>
     <use xlink:href="#LiberationSans-39"/>
     <use xlink:href="#LiberationSans-37" x="55.615234"/>
     <use xlink:href="#LiberationSans-2e" x="111.230469"/>
     <use xlink:href="#LiberationSans-34" x="139.013672"/>
     <use xlink:href="#LiberationSans-33" x="194.628906"/>
    </g>
   </g>
   <g id="text_24">
    <!-- 0.22 -->
    <g style="fill: #262626" transform="translate(72.718075 196.985937)scale(0.1 -0.1)">
     <use xlink:href="#LiberationSans-30"/>
     <use xlink:href="#LiberationSans-2e" x="55.615234"/>
     <use xlink:href="#LiberationSans-32" x="83.398438"/>
     <use xlink:href="#LiberationSans-32" x="139.013672"/>
    </g>
   </g>
   <g id="text_25">
    <!-- 44.4 -->
    <g style="fill: #262626" transform="translate(72.718075 168.185937)scale(0.1 -0.1)">
     <use xlink:href="#LiberationSans-34"/>
     <use xlink:href="#LiberationSans-34" x="55.615234"/>
     <use xlink:href="#LiberationSans-2e" x="111.230469"/>
     <use xlink:href="#LiberationSans-34" x="139.013672"/>
    </g>
   </g>
   <g id="text_26">
    <!-- 0.06 -->
    <g style="fill: #262626" transform="translate(72.718075 139.385937)scale(0.1 -0.1)">
     <use xlink:href="#LiberationSans-30"/>
     <use xlink:href="#LiberationSans-2e" x="55.615234"/>
     <use xlink:href="#LiberationSans-30" x="83.398438"/>
     <use xlink:href="#LiberationSans-36" x="139.013672"/>
    </g>
   </g>
   <g id="text_27">
    <!-- 0.03 -->
    <g style="fill: #262626" transform="translate(72.718075 110.585937)scale(0.1 -0.1)">
     <use xlink:href="#LiberationSans-30"/>
     <use xlink:href="#LiberationSans-2e" x="55.615234"/>
     <use xlink:href="#LiberationSans-30" x="83.398438"/>
     <use xlink:href="#LiberationSans-33" x="139.013672"/>
    </g>
   </g>
   <g id="text_28">
    <!-- 0 -->
    <g style="fill: #262626" transform="translate(79.668075 81.785937)scale(0.1 -0.1)">
     <use xlink:href="#LiberationSans-30"/>
    </g>
   </g>
   <g id="text_29">
    <!-- 0 -->
    <g style="fill: #262626" transform="translate(79.668075 52.985938)scale(0.1 -0.1)">
     <use xlink:href="#LiberationSans-30"/>
    </g>
   </g>
   <g id="text_30">
    <!-- 0 -->
    <g style="fill: #262626" transform="translate(79.668075 24.185937)scale(0.1 -0.1)">
     <use xlink:href="#LiberationSans-30"/>
    </g>
   </g>
   <g id="text_31">
    <!-- 0.13 -->
    <g style="fill: #262626" transform="translate(101.518075 196.985937)scale(0.1 -0.1)">
     <use xlink:href="#LiberationSans-30"/>
     <use xlink:href="#LiberationSans-2e" x="55.615234"/>
     <use xlink:href="#LiberationSans-31" x="83.398438"/>
     <use xlink:href="#LiberationSans-33" x="139.013672"/>
    </g>
   </g>
   <g id="text_32">
    <!-- 0.01 -->
    <g style="fill: #262626" transform="translate(101.518075 168.185937)scale(0.1 -0.1)">
     <use xlink:href="#LiberationSans-30"/>
     <use xlink:href="#LiberationSans-2e" x="55.615234"/>
     <use xlink:href="#LiberationSans-30" x="83.398438"/>
     <use xlink:href="#LiberationSans-31" x="139.013672"/>
    </g>
   </g>
   <g id="text_33">
    <!-- 35.95 -->
    <g style="fill: #262626" transform="translate(98.737606 139.385937)scale(0.1 -0.1)">
     <use xlink:href="#LiberationSans-33"/>
     <use xlink:href="#LiberationSans-35" x="55.615234"/>
     <use xlink:href="#LiberationSans-2e" x="111.230469"/>
     <use xlink:href="#LiberationSans-39" x="139.013672"/>
     <use xlink:href="#LiberationSans-35" x="194.628906"/>
    </g>
   </g>
   <g id="text_34">
    <!-- 0 -->
    <g style="fill: #262626" transform="translate(108.468075 110.585937)scale(0.1 -0.1)">
     <use xlink:href="#LiberationSans-30"/>
    </g>
   </g>
   <g id="text_35">
    <!-- 0.16 -->
    <g style="fill: #262626" transform="translate(101.518075 81.785937)scale(0.1 -0.1)">
     <use xlink:href="#LiberationSans-30"/>
     <use xlink:href="#LiberationSans-2e" x="55.615234"/>
     <use xlink:href="#LiberationSans-31" x="83.398438"/>
     <use xlink:href="#LiberationSans-36" x="139.013672"/>
    </g>
   </g>
   <g id="text_36">
    <!-- 0 -->
    <g style="fill: #262626" transform="translate(108.468075 52.985938)scale(0.1 -0.1)">
     <use xlink:href="#LiberationSans-30"/>
    </g>
   </g>
   <g id="text_37">
    <!-- 0 -->
    <g style="fill: #262626" transform="translate(108.468075 24.185937)scale(0.1 -0.1)">
     <use xlink:href="#LiberationSans-30"/>
    </g>
   </g>
   <g id="text_38">
    <!-- 0.25 -->
    <g style="fill: #262626" transform="translate(130.318075 196.985937)scale(0.1 -0.1)">
     <use xlink:href="#LiberationSans-30"/>
     <use xlink:href="#LiberationSans-2e" x="55.615234"/>
     <use xlink:href="#LiberationSans-32" x="83.398438"/>
     <use xlink:href="#LiberationSans-35" x="139.013672"/>
    </g>
   </g>
   <g id="text_39">
    <!-- 0.48 -->
    <g style="fill: #262626" transform="translate(130.318075 168.185937)scale(0.1 -0.1)">
     <defs>
      <path id="LiberationSans-38" d="M 3281 1228 
Q 3281 619 2893 278 
Q 2506 -63 1781 -63 
Q 1075 -63 676 271 
Q 278 606 278 1222 
Q 278 1653 525 1947 
Q 772 2241 1156 2303 
L 1156 2316 
Q 797 2400 589 2681 
Q 381 2963 381 3341 
Q 381 3844 757 4156 
Q 1134 4469 1769 4469 
Q 2419 4469 2795 4162 
Q 3172 3856 3172 3334 
Q 3172 2956 2962 2675 
Q 2753 2394 2391 2322 
L 2391 2309 
Q 2813 2241 3047 1952 
Q 3281 1663 3281 1228 
z
M 2588 3303 
Q 2588 4050 1769 4050 
Q 1372 4050 1164 3862 
Q 956 3675 956 3303 
Q 956 2925 1170 2726 
Q 1384 2528 1775 2528 
Q 2172 2528 2380 2711 
Q 2588 2894 2588 3303 
z
M 2697 1281 
Q 2697 1691 2453 1898 
Q 2209 2106 1769 2106 
Q 1341 2106 1100 1882 
Q 859 1659 859 1269 
Q 859 359 1788 359 
Q 2247 359 2472 579 
Q 2697 800 2697 1281 
z
" transform="scale(0.015625)"/>
     </defs>
     <use xlink:href="#LiberationSans-30"/>
     <use xlink:href="#LiberationSans-2e" x="55.615234"/>
     <use xlink:href="#LiberationSans-34" x="83.398438"/>
     <use xlink:href="#LiberationSans-38" x="139.013672"/>
    </g>
   </g>
   <g id="text_40">
    <!-- 0 -->
    <g style="fill: #262626" transform="translate(137.268075 139.385937)scale(0.1 -0.1)">
     <use xlink:href="#LiberationSans-30"/>
    </g>
   </g>
   <g id="text_41">
    <!-- 66.95 -->
    <g style="fill: #262626" transform="translate(127.537606 110.585937)scale(0.1 -0.1)">
     <use xlink:href="#LiberationSans-36"/>
     <use xlink:href="#LiberationSans-36" x="55.615234"/>
     <use xlink:href="#LiberationSans-2e" x="111.230469"/>
     <use xlink:href="#LiberationSans-39" x="139.013672"/>
     <use xlink:href="#LiberationSans-35" x="194.628906"/>
    </g>
   </g>
   <g id="text_42">
    <!-- 0 -->
    <g style="fill: #262626" transform="translate(137.268075 81.785937)scale(0.1 -0.1)">
     <use xlink:href="#LiberationSans-30"/>
    </g>
   </g>
   <g id="text_43">
    <!-- 0 -->
    <g style="fill: #262626" transform="translate(137.268075 52.985938)scale(0.1 -0.1)">
     <use xlink:href="#LiberationSans-30"/>
    </g>
   </g>
   <g id="text_44">
    <!-- 0 -->
    <g style="fill: #262626" transform="translate(137.268075 24.185937)scale(0.1 -0.1)">
     <use xlink:href="#LiberationSans-30"/>
    </g>
   </g>
   <g id="text_45">
    <!-- 0.16 -->
    <g style="fill: #262626" transform="translate(159.118075 196.985937)scale(0.1 -0.1)">
     <use xlink:href="#LiberationSans-30"/>
     <use xlink:href="#LiberationSans-2e" x="55.615234"/>
     <use xlink:href="#LiberationSans-31" x="83.398438"/>
     <use xlink:href="#LiberationSans-36" x="139.013672"/>
    </g>
   </g>
   <g id="text_46">
    <!-- 0 -->
    <g style="fill: #262626" transform="translate(166.068075 168.185937)scale(0.1 -0.1)">
     <use xlink:href="#LiberationSans-30"/>
    </g>
   </g>
   <g id="text_47">
    <!-- 0.07 -->
    <g style="fill: #262626" transform="translate(159.118075 139.385937)scale(0.1 -0.1)">
     <use xlink:href="#LiberationSans-30"/>
     <use xlink:href="#LiberationSans-2e" x="55.615234"/>
     <use xlink:href="#LiberationSans-30" x="83.398438"/>
     <use xlink:href="#LiberationSans-37" x="139.013672"/>
    </g>
   </g>
   <g id="text_48">
    <!-- 0 -->
    <g style="fill: #262626" transform="translate(166.068075 110.585937)scale(0.1 -0.1)">
     <use xlink:href="#LiberationSans-30"/>
    </g>
   </g>
   <g id="text_49">
    <!-- 58.92 -->
    <g style="fill: #262626" transform="translate(156.337606 81.785937)scale(0.1 -0.1)">
     <use xlink:href="#LiberationSans-35"/>
     <use xlink:href="#LiberationSans-38" x="55.615234"/>
     <use xlink:href="#LiberationSans-2e" x="111.230469"/>
     <use xlink:href="#LiberationSans-39" x="139.013672"/>
     <use xlink:href="#LiberationSans-32" x="194.628906"/>
    </g>
   </g>
   <g id="text_50">
    <!-- 0 -->
    <g style="fill: #262626" transform="translate(166.068075 52.985938)scale(0.1 -0.1)">
     <use xlink:href="#LiberationSans-30"/>
    </g>
   </g>
   <g id="text_51">
    <!-- 2.57 -->
    <g style="fill: #262626" transform="translate(159.118075 24.185937)scale(0.1 -0.1)">
     <use xlink:href="#LiberationSans-32"/>
     <use xlink:href="#LiberationSans-2e" x="55.615234"/>
     <use xlink:href="#LiberationSans-35" x="83.398438"/>
     <use xlink:href="#LiberationSans-37" x="139.013672"/>
    </g>
   </g>
   <g id="text_52">
    <!-- 0 -->
    <g style="fill: #262626" transform="translate(194.868075 196.985937)scale(0.1 -0.1)">
     <use xlink:href="#LiberationSans-30"/>
    </g>
   </g>
   <g id="text_53">
    <!-- 0 -->
    <g style="fill: #262626" transform="translate(194.868075 168.185937)scale(0.1 -0.1)">
     <use xlink:href="#LiberationSans-30"/>
    </g>
   </g>
   <g id="text_54">
    <!-- 0 -->
    <g style="fill: #262626" transform="translate(194.868075 139.385937)scale(0.1 -0.1)">
     <use xlink:href="#LiberationSans-30"/>
    </g>
   </g>
   <g id="text_55">
    <!-- 0 -->
    <g style="fill: #262626" transform="translate(194.868075 110.585937)scale(0.1 -0.1)">
     <use xlink:href="#LiberationSans-30"/>
    </g>
   </g>
   <g id="text_56">
    <!-- 0 -->
    <g style="fill: #262626" transform="translate(194.868075 81.785937)scale(0.1 -0.1)">
     <use xlink:href="#LiberationSans-30"/>
    </g>
   </g>
   <g id="text_57">
    <!-- 0 -->
    <g style="fill: #262626" transform="translate(194.868075 52.985938)scale(0.1 -0.1)">
     <use xlink:href="#LiberationSans-30"/>
    </g>
   </g>
   <g id="text_58">
    <!-- 0 -->
    <g style="fill: #262626" transform="translate(194.868075 24.185937)scale(0.1 -0.1)">
     <use xlink:href="#LiberationSans-30"/>
    </g>
   </g>
   <g id="text_59">
    <!-- 0 -->
    <g style="fill: #262626" transform="translate(223.668075 196.985937)scale(0.1 -0.1)">
     <use xlink:href="#LiberationSans-30"/>
    </g>
   </g>
   <g id="text_60">
    <!-- 0 -->
    <g style="fill: #262626" transform="translate(223.668075 168.185937)scale(0.1 -0.1)">
     <use xlink:href="#LiberationSans-30"/>
    </g>
   </g>
   <g id="text_61">
    <!-- 0 -->
    <g style="fill: #262626" transform="translate(223.668075 139.385937)scale(0.1 -0.1)">
     <use xlink:href="#LiberationSans-30"/>
    </g>
   </g>
   <g id="text_62">
    <!-- 0 -->
    <g style="fill: #262626" transform="translate(223.668075 110.585937)scale(0.1 -0.1)">
     <use xlink:href="#LiberationSans-30"/>
    </g>
   </g>
   <g id="text_63">
    <!-- 0 -->
    <g style="fill: #262626" transform="translate(223.668075 81.785937)scale(0.1 -0.1)">
     <use xlink:href="#LiberationSans-30"/>
    </g>
   </g>
   <g id="text_64">
    <!-- 0 -->
    <g style="fill: #262626" transform="translate(223.668075 52.985938)scale(0.1 -0.1)">
     <use xlink:href="#LiberationSans-30"/>
    </g>
   </g>
   <g id="text_65">
    <!-- 0 -->
    <g style="fill: #262626" transform="translate(223.668075 24.185937)scale(0.1 -0.1)">
     <use xlink:href="#LiberationSans-30"/>
    </g>
   </g>
  </g>
 </g>
 <defs>
  <clipPath id="p8d3da01301">
   <rect x="39.248543" y="7.2" width="201.6" height="201.6"/>
  </clipPath>
 </defs>
</svg>
