<?xml version="1.0" encoding="utf-8" standalone="no"?>
<!DOCTYPE svg PUBLIC "-//W3C//DTD SVG 1.1//EN"
  "http://www.w3.org/Graphics/SVG/1.1/DTD/svg11.dtd">
<svg xmlns:xlink="http://www.w3.org/1999/xlink" width="206.225pt" height="200.6pt" viewBox="0 0 206.225 200.6" xmlns="http://www.w3.org/2000/svg" version="1.1">
 <metadata>
  <rdf:RDF xmlns:dc="http://purl.org/dc/elements/1.1/" xmlns:cc="http://creativecommons.org/ns#" xmlns:rdf="http://www.w3.org/1999/02/22-rdf-syntax-ns#">
   <cc:Work>
    <dc:type rdf:resource="http://purl.org/dc/dcmitype/StillImage"/>
    <dc:date>2022-01-07T17:34:03.058903</dc:date>
    <dc:format>image/svg+xml</dc:format>
    <dc:creator>
     <cc:Agent>
      <dc:title>Matplotlib v3.5.1, https://matplotlib.org/</dc:title>
     </cc:Agent>
    </dc:creator>
   </cc:Work>
  </rdf:RDF>
 </metadata>
 <defs>
  <style type="text/css">*{stroke-linejoin: round; stroke-linecap: butt}</style>
 </defs>
 <g id="figure_1">
  <g id="patch_1">
   <path d="M 0 200.6 
L 206.225 200.6 
L 206.225 0 
L 0 0 
z
" style="fill: #ffffff"/>
  </g>
  <g id="axes_1">
   <g id="patch_2">
    <path d="M 42.2 162.4 
L 193.4 162.4 
L 193.4 11.2 
L 42.2 11.2 
z
" style="fill: #eaeaf2"/>
   </g>
   <g id="line2d_1">
    <path d="M 42.2 30.090771 
L 47.24 15.861473 
L 52.28 15.810202 
L 57.32 15.524127 
L 62.36 15.220307 
L 67.4 14.931808 
L 72.44 14.688694 
L 77.48 14.566417 
L 82.52 14.464029 
L 87.56 14.376196 
L 92.6 14.23611 
L 97.64 14.160876 
L 102.68 14.096853 
L 107.72 14.128882 
L 112.76 14.038823 
L 117.8 14.004153 
L 122.84 13.995736 
L 127.88 13.925575 
L 132.92 13.907957 
L 137.96 13.899503 
L 143 13.814283 
L 148.04 13.705461 
L 153.08 13.758056 
L 158.12 13.66122 
L 163.16 13.562176 
L 168.2 13.568529 
L 173.24 13.547495 
L 178.28 13.545899 
L 183.32 13.508832 
L 188.36 13.489843 
L 193.4 13.49973 
" clip-path="url(#pd06c97691f)" style="fill: none; stroke: #30a2da; stroke-width: 2; stroke-linecap: round"/>
   </g>
   <g id="matplotlib.axis_1">
    <g id="xtick_1">
     <g id="line2d_2"/>
     <g id="text_1">
      <!-- 0 -->
      <g style="fill: #262626" transform="translate(39.419531 176.646875)scale(0.1 -0.1)">
       <defs>
        <path id="LiberationSans-30" d="M 3309 2203 
Q 3309 1100 2920 518 
Q 2531 -63 1772 -63 
Q 1013 -63 631 515 
Q 250 1094 250 2203 
Q 250 3338 620 3903 
Q 991 4469 1791 4469 
Q 2569 4469 2939 3897 
Q 3309 3325 3309 2203 
z
M 2738 2203 
Q 2738 3156 2517 3584 
Q 2297 4013 1791 4013 
Q 1272 4013 1045 3591 
Q 819 3169 819 2203 
Q 819 1266 1048 831 
Q 1278 397 1778 397 
Q 2275 397 2506 840 
Q 2738 1284 2738 2203 
z
" transform="scale(0.015625)"/>
       </defs>
       <use xlink:href="#LiberationSans-30"/>
      </g>
     </g>
    </g>
    <g id="xtick_2">
     <g id="line2d_3"/>
     <g id="text_2">
      <!-- 10 -->
      <g style="fill: #262626" transform="translate(87.039062 176.646875)scale(0.1 -0.1)">
       <defs>
        <path id="LiberationSans-31" d="M 488 0 
L 488 478 
L 1609 478 
L 1609 3866 
L 616 3156 
L 616 3688 
L 1656 4403 
L 2175 4403 
L 2175 478 
L 3247 478 
L 3247 0 
L 488 0 
z
" transform="scale(0.015625)"/>
       </defs>
       <use xlink:href="#LiberationSans-31"/>
       <use xlink:href="#LiberationSans-30" x="55.615234"/>
      </g>
     </g>
    </g>
    <g id="xtick_3">
     <g id="line2d_4"/>
     <g id="text_3">
      <!-- 20 -->
      <g style="fill: #262626" transform="translate(137.439063 176.646875)scale(0.1 -0.1)">
       <defs>
        <path id="LiberationSans-32" d="M 322 0 
L 322 397 
Q 481 763 711 1042 
Q 941 1322 1194 1548 
Q 1447 1775 1695 1969 
Q 1944 2163 2144 2356 
Q 2344 2550 2467 2762 
Q 2591 2975 2591 3244 
Q 2591 3606 2378 3806 
Q 2166 4006 1788 4006 
Q 1428 4006 1195 3811 
Q 963 3616 922 3263 
L 347 3316 
Q 409 3844 795 4156 
Q 1181 4469 1788 4469 
Q 2453 4469 2811 4155 
Q 3169 3841 3169 3263 
Q 3169 3006 3051 2753 
Q 2934 2500 2703 2247 
Q 2472 1994 1819 1463 
Q 1459 1169 1246 933 
Q 1034 697 941 478 
L 3238 478 
L 3238 0 
L 322 0 
z
" transform="scale(0.015625)"/>
       </defs>
       <use xlink:href="#LiberationSans-32"/>
       <use xlink:href="#LiberationSans-30" x="55.615234"/>
      </g>
     </g>
    </g>
    <g id="xtick_4">
     <g id="line2d_5"/>
     <g id="text_4">
      <!-- 30 -->
      <g style="fill: #262626" transform="translate(187.839062 176.646875)scale(0.1 -0.1)">
       <defs>
        <path id="LiberationSans-33" d="M 3278 1216 
Q 3278 606 2890 271 
Q 2503 -63 1784 -63 
Q 1116 -63 717 239 
Q 319 541 244 1131 
L 825 1184 
Q 938 403 1784 403 
Q 2209 403 2451 612 
Q 2694 822 2694 1234 
Q 2694 1594 2417 1795 
Q 2141 1997 1619 1997 
L 1300 1997 
L 1300 2484 
L 1606 2484 
Q 2069 2484 2323 2686 
Q 2578 2888 2578 3244 
Q 2578 3597 2370 3801 
Q 2163 4006 1753 4006 
Q 1381 4006 1151 3815 
Q 922 3625 884 3278 
L 319 3322 
Q 381 3863 767 4166 
Q 1153 4469 1759 4469 
Q 2422 4469 2789 4161 
Q 3156 3853 3156 3303 
Q 3156 2881 2920 2617 
Q 2684 2353 2234 2259 
L 2234 2247 
Q 2728 2194 3003 1916 
Q 3278 1638 3278 1216 
z
" transform="scale(0.015625)"/>
       </defs>
       <use xlink:href="#LiberationSans-33"/>
       <use xlink:href="#LiberationSans-30" x="55.615234"/>
      </g>
     </g>
    </g>
    <g id="text_5">
     <!-- Epoche -->
     <g style="fill: #262626" transform="translate(99.147266 190.693437)scale(0.11 -0.11)">
      <defs>
       <path id="LiberationSans-45" d="M 525 0 
L 525 4403 
L 3866 4403 
L 3866 3916 
L 1122 3916 
L 1122 2503 
L 3678 2503 
L 3678 2022 
L 1122 2022 
L 1122 488 
L 3994 488 
L 3994 0 
L 525 0 
z
" transform="scale(0.015625)"/>
       <path id="LiberationSans-70" d="M 3291 1706 
Q 3291 -63 2047 -63 
Q 1266 -63 997 525 
L 981 525 
Q 994 500 994 -6 
L 994 -1328 
L 431 -1328 
L 431 2691 
Q 431 3213 413 3381 
L 956 3381 
Q 959 3369 965 3292 
Q 972 3216 980 3056 
Q 988 2897 988 2838 
L 1000 2838 
Q 1150 3150 1397 3295 
Q 1644 3441 2047 3441 
Q 2672 3441 2981 3022 
Q 3291 2603 3291 1706 
z
M 2700 1694 
Q 2700 2400 2509 2703 
Q 2319 3006 1903 3006 
Q 1569 3006 1380 2865 
Q 1191 2725 1092 2426 
Q 994 2128 994 1650 
Q 994 984 1206 668 
Q 1419 353 1897 353 
Q 2316 353 2508 661 
Q 2700 969 2700 1694 
z
" transform="scale(0.015625)"/>
       <path id="LiberationSans-6f" d="M 3291 1694 
Q 3291 806 2900 371 
Q 2509 -63 1766 -63 
Q 1025 -63 647 389 
Q 269 841 269 1694 
Q 269 3444 1784 3444 
Q 2559 3444 2925 3017 
Q 3291 2591 3291 1694 
z
M 2700 1694 
Q 2700 2394 2492 2711 
Q 2284 3028 1794 3028 
Q 1300 3028 1079 2704 
Q 859 2381 859 1694 
Q 859 1025 1076 689 
Q 1294 353 1759 353 
Q 2266 353 2483 678 
Q 2700 1003 2700 1694 
z
" transform="scale(0.015625)"/>
       <path id="LiberationSans-63" d="M 859 1706 
Q 859 1031 1071 706 
Q 1284 381 1713 381 
Q 2013 381 2214 543 
Q 2416 706 2463 1044 
L 3031 1006 
Q 2966 519 2616 228 
Q 2266 -63 1728 -63 
Q 1019 -63 645 385 
Q 272 834 272 1694 
Q 272 2547 647 2995 
Q 1022 3444 1722 3444 
Q 2241 3444 2583 3175 
Q 2925 2906 3013 2434 
L 2434 2391 
Q 2391 2672 2212 2837 
Q 2034 3003 1706 3003 
Q 1259 3003 1059 2706 
Q 859 2409 859 1706 
z
" transform="scale(0.015625)"/>
       <path id="LiberationSans-68" d="M 991 2803 
Q 1172 3134 1426 3289 
Q 1681 3444 2072 3444 
Q 2622 3444 2883 3170 
Q 3144 2897 3144 2253 
L 3144 0 
L 2578 0 
L 2578 2144 
Q 2578 2500 2512 2673 
Q 2447 2847 2297 2928 
Q 2147 3009 1881 3009 
Q 1484 3009 1245 2734 
Q 1006 2459 1006 1994 
L 1006 0 
L 444 0 
L 444 4638 
L 1006 4638 
L 1006 3431 
Q 1006 3241 995 3037 
Q 984 2834 981 2803 
L 991 2803 
z
" transform="scale(0.015625)"/>
       <path id="LiberationSans-65" d="M 863 1572 
Q 863 991 1103 675 
Q 1344 359 1806 359 
Q 2172 359 2392 506 
Q 2613 653 2691 878 
L 3184 738 
Q 2881 -63 1806 -63 
Q 1056 -63 664 384 
Q 272 831 272 1713 
Q 272 2550 664 2997 
Q 1056 3444 1784 3444 
Q 3275 3444 3275 1647 
L 3275 1572 
L 863 1572 
z
M 2694 2003 
Q 2647 2538 2422 2783 
Q 2197 3028 1775 3028 
Q 1366 3028 1127 2754 
Q 888 2481 869 2003 
L 2694 2003 
z
" transform="scale(0.015625)"/>
      </defs>
      <use xlink:href="#LiberationSans-45"/>
      <use xlink:href="#LiberationSans-70" x="66.699219"/>
      <use xlink:href="#LiberationSans-6f" x="122.314453"/>
      <use xlink:href="#LiberationSans-63" x="177.929688"/>
      <use xlink:href="#LiberationSans-68" x="227.929688"/>
      <use xlink:href="#LiberationSans-65" x="283.544922"/>
     </g>
    </g>
   </g>
   <g id="matplotlib.axis_2">
    <g id="ytick_1">
     <g id="line2d_6"/>
     <g id="text_6">
      <!-- 0.0 -->
      <g style="fill: #262626" transform="translate(21.3 166.023437)scale(0.1 -0.1)">
       <defs>
        <path id="LiberationSans-2e" d="M 584 0 
L 584 684 
L 1194 684 
L 1194 0 
L 584 0 
z
" transform="scale(0.015625)"/>
       </defs>
       <use xlink:href="#LiberationSans-30"/>
       <use xlink:href="#LiberationSans-2e" x="55.615234"/>
       <use xlink:href="#LiberationSans-30" x="83.398438"/>
      </g>
     </g>
    </g>
    <g id="ytick_2">
     <g id="line2d_7"/>
     <g id="text_7">
      <!-- 0.2 -->
      <g style="fill: #262626" transform="translate(21.3 135.783437)scale(0.1 -0.1)">
       <use xlink:href="#LiberationSans-30"/>
       <use xlink:href="#LiberationSans-2e" x="55.615234"/>
       <use xlink:href="#LiberationSans-32" x="83.398438"/>
      </g>
     </g>
    </g>
    <g id="ytick_3">
     <g id="line2d_8"/>
     <g id="text_8">
      <!-- 0.4 -->
      <g style="fill: #262626" transform="translate(21.3 105.543437)scale(0.1 -0.1)">
       <defs>
        <path id="LiberationSans-34" d="M 2753 997 
L 2753 0 
L 2222 0 
L 2222 997 
L 147 997 
L 147 1434 
L 2163 4403 
L 2753 4403 
L 2753 1441 
L 3372 1441 
L 3372 997 
L 2753 997 
z
M 2222 3769 
Q 2216 3750 2134 3603 
Q 2053 3456 2013 3397 
L 884 1734 
L 716 1503 
L 666 1441 
L 2222 1441 
L 2222 3769 
z
" transform="scale(0.015625)"/>
       </defs>
       <use xlink:href="#LiberationSans-30"/>
       <use xlink:href="#LiberationSans-2e" x="55.615234"/>
       <use xlink:href="#LiberationSans-34" x="83.398438"/>
      </g>
     </g>
    </g>
    <g id="ytick_4">
     <g id="line2d_9"/>
     <g id="text_9">
      <!-- 0.6 -->
      <g style="fill: #262626" transform="translate(21.3 75.303437)scale(0.1 -0.1)">
       <defs>
        <path id="LiberationSans-36" d="M 3278 1441 
Q 3278 744 2900 340 
Q 2522 -63 1856 -63 
Q 1113 -63 719 490 
Q 325 1044 325 2100 
Q 325 3244 734 3856 
Q 1144 4469 1900 4469 
Q 2897 4469 3156 3572 
L 2619 3475 
Q 2453 4013 1894 4013 
Q 1413 4013 1148 3564 
Q 884 3116 884 2266 
Q 1038 2550 1316 2698 
Q 1594 2847 1953 2847 
Q 2563 2847 2920 2465 
Q 3278 2084 3278 1441 
z
M 2706 1416 
Q 2706 1894 2472 2153 
Q 2238 2413 1819 2413 
Q 1425 2413 1183 2183 
Q 941 1953 941 1550 
Q 941 1041 1192 716 
Q 1444 391 1838 391 
Q 2244 391 2475 664 
Q 2706 938 2706 1416 
z
" transform="scale(0.015625)"/>
       </defs>
       <use xlink:href="#LiberationSans-30"/>
       <use xlink:href="#LiberationSans-2e" x="55.615234"/>
       <use xlink:href="#LiberationSans-36" x="83.398438"/>
      </g>
     </g>
    </g>
    <g id="ytick_5">
     <g id="line2d_10"/>
     <g id="text_10">
      <!-- 0.8 -->
      <g style="fill: #262626" transform="translate(21.3 45.063437)scale(0.1 -0.1)">
       <defs>
        <path id="LiberationSans-38" d="M 3281 1228 
Q 3281 619 2893 278 
Q 2506 -63 1781 -63 
Q 1075 -63 676 271 
Q 278 606 278 1222 
Q 278 1653 525 1947 
Q 772 2241 1156 2303 
L 1156 2316 
Q 797 2400 589 2681 
Q 381 2963 381 3341 
Q 381 3844 757 4156 
Q 1134 4469 1769 4469 
Q 2419 4469 2795 4162 
Q 3172 3856 3172 3334 
Q 3172 2956 2962 2675 
Q 2753 2394 2391 2322 
L 2391 2309 
Q 2813 2241 3047 1952 
Q 3281 1663 3281 1228 
z
M 2588 3303 
Q 2588 4050 1769 4050 
Q 1372 4050 1164 3862 
Q 956 3675 956 3303 
Q 956 2925 1170 2726 
Q 1384 2528 1775 2528 
Q 2172 2528 2380 2711 
Q 2588 2894 2588 3303 
z
M 2697 1281 
Q 2697 1691 2453 1898 
Q 2209 2106 1769 2106 
Q 1341 2106 1100 1882 
Q 859 1659 859 1269 
Q 859 359 1788 359 
Q 2247 359 2472 579 
Q 2697 800 2697 1281 
z
" transform="scale(0.015625)"/>
       </defs>
       <use xlink:href="#LiberationSans-30"/>
       <use xlink:href="#LiberationSans-2e" x="55.615234"/>
       <use xlink:href="#LiberationSans-38" x="83.398438"/>
      </g>
     </g>
    </g>
    <g id="ytick_6">
     <g id="line2d_11"/>
     <g id="text_11">
      <!-- 1.0 -->
      <g style="fill: #262626" transform="translate(21.3 14.823437)scale(0.1 -0.1)">
       <use xlink:href="#LiberationSans-31"/>
       <use xlink:href="#LiberationSans-2e" x="55.615234"/>
       <use xlink:href="#LiberationSans-30" x="83.398438"/>
      </g>
     </g>
    </g>
    <g id="text_12">
     <!-- IoU -->
     <g style="fill: #262626" transform="translate(15.0175 95.358516)rotate(-90)scale(0.11 -0.11)">
      <defs>
       <path id="LiberationSans-49" d="M 591 0 
L 591 4403 
L 1188 4403 
L 1188 0 
L 591 0 
z
" transform="scale(0.015625)"/>
       <path id="LiberationSans-55" d="M 2284 -63 
Q 1744 -63 1341 134 
Q 938 331 716 706 
Q 494 1081 494 1600 
L 494 4403 
L 1091 4403 
L 1091 1650 
Q 1091 1047 1397 734 
Q 1703 422 2281 422 
Q 2875 422 3204 745 
Q 3534 1069 3534 1691 
L 3534 4403 
L 4128 4403 
L 4128 1656 
Q 4128 1122 3901 734 
Q 3675 347 3261 142 
Q 2847 -63 2284 -63 
z
" transform="scale(0.015625)"/>
      </defs>
      <use xlink:href="#LiberationSans-49"/>
      <use xlink:href="#LiberationSans-6f" x="27.783203"/>
      <use xlink:href="#LiberationSans-55" x="83.398438"/>
     </g>
    </g>
   </g>
   <g id="line2d_12">
    <path d="M 42.2 162.235558 
L 47.24 162.397888 
L 52.28 156.316364 
L 57.32 142.488691 
L 62.36 129.4276 
L 67.4 119.598122 
L 72.44 112.164102 
L 77.48 107.822004 
L 82.52 104.674233 
L 87.56 102.420195 
L 92.6 99.419319 
L 97.64 98.382526 
L 102.68 96.421246 
L 107.72 96.832023 
L 112.76 95.382812 
L 117.8 95.015276 
L 122.84 94.655075 
L 127.88 92.336573 
L 132.92 91.501577 
L 137.96 92.140174 
L 143 90.557741 
L 148.04 86.479174 
L 153.08 86.155302 
L 158.12 83.78661 
L 163.16 84.451829 
L 168.2 87.115887 
L 173.24 82.730612 
L 178.28 80.035723 
L 183.32 82.235039 
L 188.36 82.118322 
L 193.4 81.433186 
" clip-path="url(#pd06c97691f)" style="fill: none; stroke: #fc4f30; stroke-width: 2; stroke-linecap: round"/>
   </g>
   <g id="line2d_13">
    <path d="M 42.2 160.854493 
L 47.24 162.396574 
L 52.28 161.989279 
L 57.32 144.687604 
L 62.36 125.144796 
L 67.4 113.757139 
L 72.44 106.613578 
L 77.48 102.621384 
L 82.52 100.039324 
L 87.56 97.041318 
L 92.6 94.070948 
L 97.64 92.399965 
L 102.68 90.929783 
L 107.72 91.706312 
L 112.76 89.119579 
L 117.8 87.650578 
L 122.84 88.102915 
L 127.88 88.698416 
L 132.92 88.165189 
L 137.96 87.727615 
L 143 83.543803 
L 148.04 82.510813 
L 153.08 86.582373 
L 158.12 81.771712 
L 163.16 76.446047 
L 168.2 75.07746 
L 173.24 79.334104 
L 178.28 83.45296 
L 183.32 79.836022 
L 188.36 76.757509 
L 193.4 76.204916 
" clip-path="url(#pd06c97691f)" style="fill: none; stroke: #e5ae38; stroke-width: 2; stroke-linecap: round"/>
   </g>
   <g id="patch_3">
    <path d="M 42.2 162.4 
L 42.2 11.2 
" style="fill: none"/>
   </g>
   <g id="patch_4">
    <path d="M 193.4 162.4 
L 193.4 11.2 
" style="fill: none"/>
   </g>
   <g id="patch_5">
    <path d="M 42.2 162.4 
L 193.4 162.4 
" style="fill: none"/>
   </g>
   <g id="patch_6">
    <path d="M 42.2 11.2 
L 193.4 11.2 
" style="fill: none"/>
   </g>
   <g id="line2d_14">
    <path d="M 42.2 162.234482 
L 47.24 162.399581 
L 52.28 162.4 
L 57.32 155.219555 
L 62.36 120.569067 
L 67.4 104.704794 
L 72.44 93.382248 
L 77.48 88.671757 
L 82.52 86.075571 
L 87.56 83.631032 
L 92.6 78.723724 
L 97.64 76.424607 
L 102.68 74.70649 
L 107.72 75.809216 
L 112.76 73.535559 
L 117.8 73.544932 
L 122.84 73.173457 
L 127.88 69.503716 
L 132.92 68.421979 
L 137.96 69.194173 
L 143 68.195961 
L 148.04 64.190921 
L 153.08 65.24171 
L 158.12 65.275659 
L 163.16 63.487823 
L 168.2 63.819843 
L 173.24 60.772738 
L 178.28 57.057792 
L 183.32 59.178773 
L 188.36 59.769948 
L 193.4 60.672117 
" clip-path="url(#pd06c97691f)" style="fill: none; stroke: #6d904f; stroke-width: 2; stroke-linecap: round"/>
   </g>
   <g id="line2d_15">
    <path d="M 42.2 162.227743 
L 47.24 162.379694 
L 52.28 162.398314 
L 57.32 141.328573 
L 62.36 117.780478 
L 67.4 105.427745 
L 72.44 97.095297 
L 77.48 93.087179 
L 82.52 89.608551 
L 87.56 86.797576 
L 92.6 82.989777 
L 97.64 79.71369 
L 102.68 77.372945 
L 107.72 78.78124 
L 112.76 75.901366 
L 117.8 74.572965 
L 122.84 73.152296 
L 127.88 71.130701 
L 132.92 71.589171 
L 137.96 70.221395 
L 143 68.717985 
L 148.04 67.220776 
L 153.08 67.757328 
L 158.12 65.776594 
L 163.16 62.969089 
L 168.2 62.393307 
L 173.24 61.967452 
L 178.28 63.946798 
L 183.32 59.065796 
L 188.36 60.556111 
L 193.4 62.883662 
" clip-path="url(#pd06c97691f)" style="fill: none; stroke: #8b8b8b; stroke-width: 2; stroke-linecap: round"/>
   </g>
   <g id="line2d_16">
    <path d="M 42.2 161.999162 
L 47.24 162.4 
L 52.28 162.4 
L 57.32 162.4 
L 62.36 162.4 
L 67.4 162.4 
L 72.44 162.4 
L 77.48 162.4 
L 82.52 162.4 
L 87.56 162.4 
L 92.6 162.4 
L 97.64 162.4 
L 102.68 162.4 
L 107.72 162.4 
L 112.76 162.4 
L 117.8 162.30702 
L 122.84 160.528 
L 127.88 158.02764 
L 132.92 153.743879 
L 137.96 144.978416 
L 143 142.761293 
L 148.04 139.268577 
L 153.08 144.93239 
L 158.12 139.559917 
L 163.16 140.120358 
L 168.2 131.10121 
L 173.24 122.717824 
L 178.28 118.394567 
L 183.32 115.550647 
L 188.36 126.323227 
L 193.4 134.756687 
" clip-path="url(#pd06c97691f)" style="fill: none; stroke: #17becf; stroke-width: 2; stroke-linecap: round"/>
   </g>
   <g id="line2d_17">
    <path d="M 42.2 162.197673 
L 47.24 162.4 
L 52.28 162.4 
L 57.32 162.4 
L 62.36 162.4 
L 67.4 162.4 
L 72.44 162.4 
L 77.48 162.4 
L 82.52 162.4 
L 87.56 162.4 
L 92.6 162.4 
L 97.64 162.4 
L 102.68 162.4 
L 107.72 162.4 
L 112.76 162.4 
L 117.8 162.4 
L 122.84 162.4 
L 127.88 162.4 
L 132.92 162.4 
L 137.96 162.4 
L 143 162.4 
L 148.04 162.4 
L 153.08 162.4 
L 158.12 162.4 
L 163.16 162.4 
L 168.2 162.4 
L 173.24 162.4 
L 178.28 162.4 
L 183.32 162.4 
L 188.36 162.392713 
L 193.4 162.4 
" clip-path="url(#pd06c97691f)" style="fill: none; stroke: #9467bd; stroke-width: 2; stroke-linecap: round"/>
   </g>
   <g id="legend_1">
    <g id="line2d_18">
     <path d="M 51.2 23.946875 
L 61.2 23.946875 
L 71.2 23.946875 
" style="fill: none; stroke: #30a2da; stroke-width: 2; stroke-linecap: round"/>
    </g>
    <g id="text_13">
     <!-- 0 -->
     <g style="fill: #262626" transform="translate(79.2 27.446875)scale(0.1 -0.1)">
      <use xlink:href="#LiberationSans-30"/>
     </g>
    </g>
    <g id="line2d_19">
     <path d="M 51.2 38.26875 
L 61.2 38.26875 
L 71.2 38.26875 
" style="fill: none; stroke: #fc4f30; stroke-width: 2; stroke-linecap: round"/>
    </g>
    <g id="text_14">
     <!-- 1 -->
     <g style="fill: #262626" transform="translate(79.2 41.76875)scale(0.1 -0.1)">
      <use xlink:href="#LiberationSans-31"/>
     </g>
    </g>
    <g id="line2d_20">
     <path d="M 51.2 52.590625 
L 61.2 52.590625 
L 71.2 52.590625 
" style="fill: none; stroke: #e5ae38; stroke-width: 2; stroke-linecap: round"/>
    </g>
    <g id="text_15">
     <!-- 2 -->
     <g style="fill: #262626" transform="translate(79.2 56.090625)scale(0.1 -0.1)">
      <use xlink:href="#LiberationSans-32"/>
     </g>
    </g>
    <g id="line2d_21">
     <path d="M 51.2 66.9125 
L 61.2 66.9125 
L 71.2 66.9125 
" style="fill: none; stroke: #6d904f; stroke-width: 2; stroke-linecap: round"/>
    </g>
    <g id="text_16">
     <!-- 3 -->
     <g style="fill: #262626" transform="translate(79.2 70.4125)scale(0.1 -0.1)">
      <use xlink:href="#LiberationSans-33"/>
     </g>
    </g>
    <g id="line2d_22">
     <path d="M 104.760938 23.946875 
L 114.760938 23.946875 
L 124.760938 23.946875 
" style="fill: none; stroke: #8b8b8b; stroke-width: 2; stroke-linecap: round"/>
    </g>
    <g id="text_17">
     <!-- 4 -->
     <g style="fill: #262626" transform="translate(132.760938 27.446875)scale(0.1 -0.1)">
      <use xlink:href="#LiberationSans-34"/>
     </g>
    </g>
    <g id="line2d_23">
     <path d="M 104.760938 38.26875 
L 114.760938 38.26875 
L 124.760938 38.26875 
" style="fill: none; stroke: #17becf; stroke-width: 2; stroke-linecap: round"/>
    </g>
    <g id="text_18">
     <!-- 5 -->
     <g style="fill: #262626" transform="translate(132.760938 41.76875)scale(0.1 -0.1)">
      <defs>
       <path id="LiberationSans-35" d="M 3291 1434 
Q 3291 738 2877 337 
Q 2463 -63 1728 -63 
Q 1113 -63 734 206 
Q 356 475 256 984 
L 825 1050 
Q 1003 397 1741 397 
Q 2194 397 2450 670 
Q 2706 944 2706 1422 
Q 2706 1838 2448 2094 
Q 2191 2350 1753 2350 
Q 1525 2350 1328 2278 
Q 1131 2206 934 2034 
L 384 2034 
L 531 4403 
L 3034 4403 
L 3034 3925 
L 1044 3925 
L 959 2528 
Q 1325 2809 1869 2809 
Q 2519 2809 2905 2428 
Q 3291 2047 3291 1434 
z
" transform="scale(0.015625)"/>
      </defs>
      <use xlink:href="#LiberationSans-35"/>
     </g>
    </g>
    <g id="line2d_24">
     <path d="M 104.760938 52.590625 
L 114.760938 52.590625 
L 124.760938 52.590625 
" style="fill: none; stroke: #9467bd; stroke-width: 2; stroke-linecap: round"/>
    </g>
    <g id="text_19">
     <!-- 6 -->
     <g style="fill: #262626" transform="translate(132.760938 56.090625)scale(0.1 -0.1)">
      <use xlink:href="#LiberationSans-36"/>
     </g>
    </g>
   </g>
  </g>
 </g>
 <defs>
  <clipPath id="pd06c97691f">
   <rect x="42.2" y="11.2" width="151.2" height="151.2"/>
  </clipPath>
 </defs>
</svg>
